3.274 0.0199 679.28 -674.22 30.29 -77.04 1.4850e+06 2.2762e+05 8.5462e+03
3.424 0.0180 670.87 -668.87 -6.63 -51.27 1.4850e+06 2.2762e+05 8.5500e+03
3.334 0.0134 673.69 -671.83 -11.42 -48.66 1.4850e+06 2.2762e+05 8.5538e+03
3.518 0.0138 668.05 -663.89 2.93 -74.41 1.4850e+06 2.2762e+05 8.5576e+03
3.375 0.0192 662.88 -660.76 4.34 -52.87 1.4850e+06 2.2762e+05 8.5614e+03
3.240 0.0168 662.41 -660.83 8.15 -45.07 1.4850e+06 2.2761e+05 8.5652e+03
3.218 0.0158 665.43 -662.43 9.27 -62.36 1.4850e+06 2.2761e+05 8.5690e+03
3.380 0.0130 666.61 -664.37 10.60 -53.66 1.4850e+06 2.2761e+05 8.5728e+03
3.304 0.0203 663.48 -661.29 14.89 -51.87 1.4850e+06 2.2761e+05 8.5766e+03
3.405 0.0175 665.86 -663.89 11.37 -49.88 1.4850e+06 2.2761e+05 8.5804e+03
3.488 0.0218 666.02 -664.15 14.13 -47.81 1.4850e+06 2.2761e+05 8.5841e+03
3.640 -9999.9004 665.08 -663.64 13.85 -41.48 1.4850e+06 2.2760e+05 8.5879e+03
3.590 0.0151 664.19 -662.71 16.00 -41.36 1.4850e+06 2.2760e+05 8.5917e+03
3.618 0.0150 663.28 -662.27 18.81 -31.27 1.4850e+06 2.2760e+05 8.5955e+03
3.617 0.0146 663.04 -661.00 20.97 -47.45 1.4850e+06 2.2760e+05 8.5993e+03
3.515 0.0168 662.35 -661.08 23.97 -33.31 1.4850e+06 2.2760e+05 8.6031e+03
3.679 0.0134 667.12 -666.15 4.94 -35.58 1.4850e+06 2.2759e+05 8.6069e+03
-9999.900 -9999.9004 -9999.90 -9999.90 -9999.90 -9999.90 1.4851e+06 2.2759e+05 8.6107e+03
3.589 0.0155 665.92 -665.18 7.58 -30.45 1.4851e+06 2.2759e+05 8.6145e+03
3.771 0.0152 664.95 -664.33 7.70 -27.76 1.4851e+06 2.2759e+05 8.6183e+03
3.682 0.0131 661.59 -660.65 9.70 -33.91 1.4851e+06 2.2759e+05 8.6221e+03
3.726 0.0140 666.61 -666.15 7.50 -23.36 1.4851e+06 2.2759e+05 8.6259e+03
3.653 0.0129 663.50 -662.91 13.74 -24.45 1.4851e+06 2.2758e+05 8.6297e+03
3.790 0.0148 666.47 -666.19 11.33 -15.82 1.4851e+06 2.2758e+05 8.6335e+03
3.930 0.0134 664.25 -664.08 8.58 -12.07 1.4851e+06 2.2758e+05 8.6373e+03
3.838 0.0132 659.64 -659.33 6.37 -19.17 1.4851e+06 2.2758e+05 8.6411e+03
3.229 0.0159 673.51 -673.40 11.85 -2.21 1.4851e+06 2.2758e+05 8.6449e+03
3.886 0.0140 668.96 -668.92 6.16 -3.33 1.4851e+06 2.2757e+05 8.6487e+03
3.913 0.0141 669.44 -669.32 11.07 -6.44 1.4851e+06 2.2757e+05 8.6525e+03
3.728 0.0155 670.92 -670.80 12.31 1.78 1.4851e+06 2.2757e+05 8.6563e+03
3.670 0.0124 671.26 -671.11 -7.68 -12.29 1.4851e+06 2.2757e+05 8.6601e+03
3.473 0.0157 668.93 -668.78 13.69 1.84 1.4851e+06 2.2757e+05 8.6639e+03
3.406 0.0135 671.57 -671.57 2.06 1.13 1.4851e+06 2.2756e+05 8.6677e+03
3.605 0.0171 678.80 -678.78 4.28 3.08 1.4851e+06 2.2756e+05 8.6715e+03
3.531 0.0153 673.46 -673.23 15.83 7.31 1.4851e+06 2.2756e+05 8.6753e+03
3.453 0.0167 673.36 -673.31 3.61 7.27 1.4851e+06 2.2756e+05 8.6791e+03
3.926 -9999.9004 673.08 -673.02 8.37 2.92 1.4851e+06 2.2756e+05 8.6829e+03
3.473 0.0127 678.03 -677.64 19.36 12.02 1.4851e+06 2.2756e+05 8.6867e+03
3.590 0.0132 684.03 -683.90 5.86 11.91 1.4851e+06 2.2755e+05 8.6905e+03
3.523 0.0131 681.39 -681.18 12.39 11.52 1.4851e+06 2.2755e+05 8.6943e+03
3.582 -9999.9004 685.29 -685.22 -7.82 6.03 1.4851e+06 2.2755e+05 8.6981e+03
3.658 0.0145 675.13 -675.13 -1.33 -1.67 1.4851e+06 2.2755e+05 8.7019e+03
3.047 0.0168 683.45 -683.30 -12.43 -7.30 1.4851e+06 2.2755e+05 8.7057e+03
3.209 0.0165 683.32 -682.99 -16.31 -13.58 1.4851e+06 2.2754e+05 8.7095e+03
3.595 0.0166 670.17 -670.14 -1.79 -6.30 1.4851e+06 2.2754e+05 8.7133e+03
3.601 0.0176 657.83 -657.40 0.19 -23.75 1.4851e+06 2.2754e+05 8.7171e+03
3.767 0.0135 675.58 -675.41 -9.49 -11.90 1.4851e+06 2.2754e+05 8.7209e+03
3.475 0.0158 668.50 -668.40 11.35 -2.76 1.4851e+06 2.2754e+05 8.7247e+03
-9999.900 -9999.9004 -9999.90 -9999.90 -9999.90 -9999.90 1.4851e+06 2.2754e+05 8.7285e+03
3.260 0.0144 673.70 -672.12 46.15 1.28 1.4851e+06 2.2753e+05 8.7323e+03
3.375 0.0132 -9999.90 -9999.90 -9999.90 -9999.90 1.4851e+06 2.2753e+05 8.7361e+03
2.545 0.0186 683.14 -682.61 -12.66 -23.69 1.4851e+06 2.2753e+05 8.7399e+03
3.057 0.0174 681.34 -680.88 -6.33 -24.17 1.4851e+06 2.2753e+05 8.7437e+03
2.661 0.0134 698.05 -697.08 -15.27 -33.42 1.4851e+06 2.2753e+05 8.7475e+03
3.031 0.0148 684.25 -684.24 3.13 -1.76 1.4852e+06 2.2752e+05 8.7512e+03
2.399 0.0229 694.54 -692.06 58.34 5.86 1.4852e+06 2.2752e+05 8.7550e+03
2.697 0.0190 671.34 -670.29 37.44 3.38 1.4852e+06 2.2752e+05 8.7588e+03
2.796 -9999.9004 663.89 -663.12 -9.85 -30.37 1.4852e+06 2.2752e+05 8.7626e+03
3.457 0.0164 678.58 -678.25 -14.27 -15.55 1.4852e+06 2.2752e+05 8.7664e+03
3.188 0.0165 676.87 -676.87 -2.64 0.09 1.4852e+06 2.2752e+05 8.7702e+03
2.512 0.0212 677.65 -677.44 -10.70 -12.91 1.4852e+06 2.2751e+05 8.7740e+03
2.897 0.0162 683.00 -682.94 -6.52 -5.60 1.4852e+06 2.2751e+05 8.7778e+03
2.852 0.0181 692.70 -691.14 42.16 19.46 1.4852e+06 2.2751e+05 8.7816e+03
2.893 0.0127 699.17 -698.40 26.82 18.92 1.4852e+06 2.2751e+05 8.7854e+03
2.995 0.0168 697.76 -695.97 45.44 20.46 1.4852e+06 2.2751e+05 8.7892e+03
3.171 0.0161 679.63 -679.46 8.69 12.73 1.4852e+06 2.2750e+05 8.7930e+03
2.825 0.0169 688.96 -688.90 1.35 9.07 1.4852e+06 2.2750e+05 8.7968e+03
3.170 0.0125 675.72 -675.70 3.33 3.08 1.4852e+06 2.2750e+05 8.8006e+03
2.526 0.0179 689.93 -689.39 -20.17 -18.74 1.4852e+06 2.2750e+05 8.8044e+03
3.015 0.0144 684.26 -683.73 -18.73 -19.38 1.4852e+06 2.2750e+05 8.8082e+03
3.492 0.0192 691.60 -691.50 -6.85 8.98 1.4852e+06 2.2750e+05 8.8120e+03
3.396 0.0171 678.07 -678.04 -4.43 -4.75 1.4852e+06 2.2749e+05 8.8158e+03
3.475 0.0156 659.60 -659.40 10.44 -12.44 1.4852e+06 2.2749e+05 8.8196e+03
3.261 0.0137 692.68 -692.56 -11.42 5.65 1.4852e+06 2.2749e+05 8.8234e+03
3.139 0.0155 681.64 -681.44 -14.86 -7.20 1.4852e+06 2.2749e+05 8.8272e+03
2.728 0.0163 683.65 -683.23 -15.28 -18.44 1.4852e+06 2.2749e+05 8.8310e+03
3.066 0.0148 677.16 -674.97 -20.59 -50.40 1.4852e+06 2.2748e+05 8.8348e+03
2.834 0.0164 676.83 -675.12 -18.01 -44.56 1.4852e+06 2.2748e+05 8.8386e+03
2.440 0.0207 702.58 -700.62 -24.98 -46.16 1.4852e+06 2.2748e+05 8.8424e+03
-9999.900 -9999.9004 -9999.90 -9999.90 -9999.90 -9999.90 1.4852e+06 2.2748e+05 8.8462e+03
2.719 0.0165 693.78 -691.86 -26.98 -43.89 1.4852e+06 2.2748e+05 8.8500e+03
2.942 -9999.9004 680.49 -680.13 -15.44 -16.08 1.4852e+06 2.2748e+05 8.8538e+03
2.951 0.0172 677.54 -677.31 -8.12 -15.76 1.4852e+06 2.2747e+05 8.8576e+03
2.661 0.0193 704.59 -704.46 -1.35 13.17 1.4852e+06 2.2747e+05 8.8614e+03
2.938 0.0152 709.14 -708.99 -12.43 7.93 1.4852e+06 2.2747e+05 8.8652e+03
2.511 0.0182 734.00 -733.38 -25.23 -16.31 1.4852e+06 2.2747e+05 8.8690e+03
2.924 0.0122 704.96 -704.62 1.29 21.87 1.4852e+06 2.2747e+05 8.8728e+03
3.060 0.0146 703.14 -702.98 -3.02 14.89 1.4852e+06 2.2746e+05 8.8766e+03
3.402 0.0109 734.46 -733.94 20.28 18.62 1.4852e+06 2.2746e+05 8.8804e+03
2.835 0.0172 723.35 -722.27 25.36 30.45 1.4852e+06 2.2746e+05 8.8842e+03
3.079 0.0106 705.87 -705.37 12.78 23.33 1.4852e+06 2.2746e+05 8.8880e+03
3.078 0.0155 665.61 -665.44 -0.51 -15.00 1.4853e+06 2.2746e+05 8.8918e+03
3.151 0.0120 686.69 -686.61 -5.95 -7.88 1.4853e+06 2.2745e+05 8.8956e+03
3.339 0.0155 680.82 -680.79 1.75 -6.93 1.4853e+06 2.2745e+05 8.8994e+03
2.573 0.0222 685.63 -685.10 -7.79 -25.74 1.4853e+06 2.2745e+05 8.9032e+03
2.910 0.0182 689.12 -688.73 14.68 17.88 1.4853e+06 2.2745e+05 8.9070e+03
2.925 0.0139 685.58 -684.84 27.51 15.84 1.4853e+06 2.2745e+05 8.9108e+03
2.841 0.0181 691.38 -691.11 10.68 16.23 1.4853e+06 2.2745e+05 8.9146e+03
3.138 0.0114 714.91 -714.82 -7.53 8.48 1.4853e+06 2.2744e+05 8.9184e+03
2.455 0.0168 705.19 -705.12 -7.23 -6.44 1.4853e+06 2.2744e+05 8.9221e+03
2.937 0.0146 704.84 -704.74 -9.14 7.56 1.4853e+06 2.2744e+05 8.9259e+03
3.114 0.0146 706.63 -705.44 -16.46 -37.49 1.4853e+06 2.2744e+05 8.9297e+03
2.983 0.0102 706.54 -706.39 -14.05 -3.79 1.4853e+06 2.2744e+05 8.9335e+03
2.606 0.0134 704.40 -703.59 -21.79 -25.83 1.4853e+06 2.2743e+05 8.9373e+03
2.260 0.0213 699.82 -699.44 -18.84 -13.36 1.4853e+06 2.2743e+05 8.9411e+03
-9999.900 -9999.9004 -9999.90 -9999.90 -9999.90 -9999.90 1.4853e+06 2.2743e+05 8.9449e+03
2.070 0.0218 701.36 -700.43 -17.05 -31.92 1.4853e+06 2.2743e+05 8.9487e+03
2.443 0.0165 706.54 -706.48 -9.18 -0.90 1.4853e+06 2.2743e+05 8.9525e+03
2.538 0.0133 732.20 -731.35 14.64 32.09 1.4853e+06 2.2743e+05 8.9563e+03
2.664 0.0126 733.61 -732.01 36.67 31.74 1.4853e+06 2.2742e+05 8.9601e+03
-9999.900 -9999.9004 -9999.90 -9999.90 -9999.90 -9999.90 1.4853e+06 2.2742e+05 8.9639e+03
2.750 -9999.9004 772.94 -770.14 61.61 23.06 1.4853e+06 2.2742e+05 8.9677e+03
2.490 0.0136 760.26 -757.17 60.76 31.55 1.4853e+06 2.2742e+05 8.9715e+03
2.880 0.0097 689.94 -689.93 3.01 1.77 1.4853e+06 2.2742e+05 8.9753e+03
2.498 -9999.9004 735.18 -731.68 61.85 36.17 1.4853e+06 2.2741e+05 8.9791e+03
2.539 0.0109 713.56 -712.83 24.42 21.09 1.4853e+06 2.2741e+05 8.9829e+03
2.298 0.0145 723.24 -720.22 58.61 30.55 1.4853e+06 2.2741e+05 8.9867e+03
2.006 0.0131 731.41 -730.26 36.37 19.06 1.4853e+06 2.2741e+05 8.9905e+03
2.361 0.0192 710.93 -710.79 -13.87 -2.78 1.4853e+06 2.2741e+05 8.9943e+03
2.248 0.0196 710.92 -710.68 -18.31 0.79 1.4853e+06 2.2741e+05 8.9981e+03
2.725 0.0126 697.82 -697.31 -15.60 -21.54 1.4853e+06 2.2740e+05 9.0019e+03
2.786 0.0134 693.53 -691.41 -16.34 -51.66 1.4853e+06 2.2740e+05 9.0057e+03
2.961 0.0105 692.79 -689.06 -12.00 -70.79 1.4853e+06 2.2740e+05 9.0095e+03
2.668 0.0150 692.50 -689.67 -12.31 -61.34 1.4853e+06 2.2740e+05 9.0133e+03
2.372 0.0189 687.54 -686.09 -14.16 -42.26 1.4853e+06 2.2740e+05 9.0171e+03
2.605 0.0159 688.66 -687.19 -14.11 -42.84 1.4853e+06 2.2739e+05 9.0209e+03
2.652 0.0138 688.34 -687.54 -13.11 -30.51 1.4853e+06 2.2739e+05 9.0247e+03
2.702 0.0189 686.65 -685.69 32.99 14.79 1.4853e+06 2.2739e+05 9.0285e+03
3.168 0.0082 750.30 -748.19 -9.18 -55.46 1.4854e+06 2.2739e+05 9.0323e+03
2.720 0.0097 793.73 -789.48 -21.54 -79.23 1.4854e+06 2.2739e+05 9.0361e+03
2.409 0.0189 746.43 -742.76 -36.88 -64.11 1.4854e+06 2.2739e+05 9.0399e+03
2.230 0.0138 758.93 -756.38 -35.30 -51.20 1.4854e+06 2.2738e+05 9.0437e+03
2.325 0.0140 730.12 -728.81 -34.27 -27.15 1.4854e+06 2.2738e+05 9.0475e+03
2.338 0.0188 728.00 -727.27 -28.48 -15.98 1.4854e+06 2.2738e+05 9.0513e+03
2.416 0.0125 739.72 -737.74 -37.23 -39.33 1.4854e+06 2.2738e+05 9.0551e+03
2.404 0.0162 722.86 -721.08 22.26 45.63 1.4854e+06 2.2738e+05 9.0589e+03
2.414 0.0147 720.57 -718.94 24.10 41.97 1.4854e+06 2.2737e+05 9.0627e+03
2.440 0.0129 715.91 -715.79 -5.29 11.72 1.4854e+06 2.2737e+05 9.0665e+03
2.545 0.0155 717.15 -716.64 -2.99 26.89 1.4854e+06 2.2737e+05 9.0703e+03
2.814 0.0097 703.96 -703.78 -9.63 13.04 1.4854e+06 2.2737e+05 9.0741e+03
2.457 0.0133 700.13 -699.57 10.38 26.06 1.4854e+06 2.2737e+05 9.0779e+03
-9999.900 -9999.9004 -9999.90 -9999.90 -9999.90 -9999.90 1.4854e+06 2.2736e+05 9.0817e+03
2.560 0.0166 682.39 -682.36 -0.64 5.63 1.4854e+06 2.2736e+05 9.0855e+03
2.717 0.0162 698.68 -698.49 -9.59 13.33 1.4854e+06 2.2736e+05 9.0892e+03
2.784 0.0118 708.57 -708.10 5.34 25.37 1.4854e+06 2.2736e+05 9.0930e+03
2.497 0.0143 677.49 -675.92 46.01 -0.23 1.4854e+06 2.2736e+05 9.0968e+03
2.745 0.0122 674.70 -673.66 37.35 3.44 1.4854e+06 2.2736e+05 9.1006e+03
2.635 0.0134 694.88 -694.11 24.75 21.40 1.4854e+06 2.2735e+05 9.1044e+03
2.908 0.0120 704.71 -704.53 7.07 14.07 1.4854e+06 2.2735e+05 9.1082e+03
2.563 0.0128 720.55 -717.10 64.92 27.42 1.4854e+06 2.2735e+05 9.1120e+03
2.768 0.0155 702.09 -701.93 7.02 13.49 1.4854e+06 2.2735e+05 9.1158e+03
2.895 0.0086 704.33 -704.08 6.22 17.95 1.4854e+06 2.2735e+05 9.1196e+03
2.950 0.0086 698.07 -696.98 30.76 24.14 1.4854e+06 2.2734e+05 9.1234e+03
2.456 0.0173 691.28 -690.83 -20.03 -14.71 1.4854e+06 2.2734e+05 9.1272e+03
2.432 0.0181 683.32 -683.06 -13.26 -13.49 1.4854e+06 2.2734e+05 9.1310e+03
2.682 0.0136 673.12 -672.74 -4.69 -22.11 1.4854e+06 2.2734e+05 9.1348e+03
1.855 -9999.9004 675.08 -674.13 -13.15 -33.24 1.4854e+06 2.2734e+05 9.1386e+03
2.397 0.0158 689.72 -689.33 -18.70 -13.70 1.4854e+06 2.2734e+05 9.1424e+03
2.566 0.0097 666.14 -664.45 39.04 -26.87 1.4854e+06 2.2733e+05 9.1462e+03
1.964 0.0196 693.54 -691.57 -18.65 -48.71 1.4854e+06 2.2733e+05 9.1500e+03
2.947 0.0111 710.26 -709.13 30.45 26.13 1.4854e+06 2.2733e+05 9.1538e+03
2.920 0.0099 688.83 -688.71 11.20 5.62 1.4854e+06 2.2733e+05 9.1576e+03
2.436 0.0146 714.44 -712.50 -32.77 -41.27 1.4854e+06 2.2733e+05 9.1614e+03
2.554 0.0166 709.46 -706.59 54.85 32.53 1.4854e+06 2.2732e+05 9.1652e+03
2.919 0.0103 685.36 -682.65 -22.31 -56.70 1.4854e+06 2.2732e+05 9.1690e+03
2.538 0.0187 695.01 -692.39 -25.23 -54.75 1.4855e+06 2.2732e+05 9.1728e+03
2.724 0.0085 691.85 -690.12 -15.01 -46.57 1.4855e+06 2.2732e+05 9.1766e+03
2.893 0.0076 684.67 -684.62 2.50 -7.89 1.4855e+06 2.2732e+05 9.1804e+03
2.476 0.0110 685.91 -684.27 -19.66 -43.15 1.4855e+06 2.2732e+05 9.1842e+03
2.408 0.0170 687.50 -685.19 -24.98 -50.54 1.4855e+06 2.2731e+05 9.1880e+03
2.548 0.0113 691.63 -688.79 -21.46 -58.84 1.4855e+06 2.2731e+05 9.1918e+03
2.844 0.0108 714.47 -709.11 -32.75 -80.94 1.4855e+06 2.2731e+05 9.1956e+03
-9999.900 -9999.9004 -9999.90 -9999.90 -9999.90 -9999.90 1.4855e+06 2.2731e+05 9.1994e+03
2.411 0.0133 754.69 -750.40 -26.48 -75.82 1.4855e+06 2.2731e+05 9.2032e+03
2.264 0.0126 716.48 -713.47 -20.97 -62.16 1.4855e+06 2.2730e+05 9.2070e+03
3.166 0.0099 712.41 -711.90 25.86 7.93 1.4855e+06 2.2730e+05 9.2108e+03
2.325 0.0121 735.08 -733.12 49.40 21.09 1.4855e+06 2.2730e+05 9.2146e+03
2.425 0.0089 767.37 -764.71 61.69 16.67 1.4855e+06 2.2730e+05 9.2184e+03
2.449 0.0138 760.12 -755.81 79.05 17.02 1.4855e+06 2.2730e+05 9.2222e+03
2.552 0.0088 751.73 -744.36 104.86 -5.70 1.4855e+06 2.2730e+05 9.2260e+03
2.893 0.0106 745.12 -735.87 115.21 -20.79 1.4855e+06 2.2729e+05 9.2298e+03
2.935 0.0105 751.19 -740.06 127.24 -20.28 1.4855e+06 2.2729e+05 9.2336e+03
2.116 0.0149 720.23 -715.81 79.03 9.87 1.4855e+06 2.2729e+05 9.2374e+03
2.085 0.0114 701.85 -698.25 69.22 -15.95 1.4855e+06 2.2729e+05 9.2412e+03
2.599 0.0182 684.86 -683.16 37.71 -30.16 1.4855e+06 2.2729e+05 9.2450e+03
2.595 0.0116 693.07 -691.11 49.92 -14.76 1.4855e+06 2.2728e+05 9.2488e+03
2.753 0.0085 681.38 -680.58 25.72 -20.89 1.4855e+06 2.2728e+05 9.2526e+03
2.679 0.0124 682.04 -681.53 18.92 -18.36 1.4855e+06 2.2728e+05 9.2564e+03
2.599 0.0071 690.01 -689.19 33.20 -5.97 1.4855e+06 2.2728e+05 9.2601e+03
2.559 0.0129 701.45 -699.71 48.61 -9.00 1.4855e+06 2.2728e+05 9.2639e+03
2.384 0.0134 734.69 -732.91 -29.34 -41.80 1.4855e+06 2.2727e+05 9.2677e+03
2.278 0.0109 757.40 -755.20 -29.40 -49.74 1.4855e+06 2.2727e+05 9.2715e+03
2.403 0.0119 757.35 -756.43 -24.35 -28.28 1.4855e+06 2.2727e+05 9.2753e+03
2.237 0.0109 777.49 -776.71 -18.81 -29.41 1.4855e+06 2.2727e+05 9.2791e+03
2.394 0.0127 750.69 -750.22 -23.16 -12.76 1.4855e+06 2.2727e+05 9.2829e+03
2.392 0.0113 747.16 -746.67 -23.21 -13.75 1.4855e+06 2.2727e+05 9.2867e+03
2.440 0.0100 746.80 -745.25 -29.83 -37.78 1.4855e+06 2.2726e+05 9.2905e+03
2.308 0.0137 755.13 -753.53 -31.18 -37.97 1.4855e+06 2.2726e+05 9.2943e+03
2.311 0.0116 731.99 -731.54 -24.26 -8.37 1.4855e+06 2.2726e+05 9.2981e+03
2.557 0.0095 765.69 -762.61 -31.42 -61.09 1.4855e+06 2.2726e+05 9.3019e+03
2.926 0.0128 695.70 -695.60 -3.79 -11.58 1.4855e+06 2.2726e+05 9.3057e+03
2.407 -9999.9004 699.35 -698.23 -16.89 -35.76 1.4855e+06 2.2725e+05 9.3095e+03
-9999.900 -9999.9004 -9999.90 -9999.90 -9999.90 -9999.90 1.4856e+06 2.2725e+05 9.3133e+03
-9999.900 -9999.9004 -9999.90 -9999.90 -9999.90 -9999.90 1.4856e+06 2.2725e+05 9.3171e+03
2.487 0.0114 690.38 -689.68 13.17 -28.10 1.4856e+06 2.2725e+05 9.3209e+03
2.664 0.0087 700.10 -699.71 0.40 -23.44 1.4856e+06 2.2725e+05 9.3247e+03
2.415 0.0132 727.52 -727.00 -21.68 -16.90 1.4856e+06 2.2725e+05 9.3285e+03
1.947 0.0169 732.28 -729.50 -37.39 -51.70 1.4856e+06 2.2724e+05 9.3323e+03
2.917 -9999.9004 715.61 -715.42 -11.66 -11.56 1.4856e+06 2.2724e+05 9.3361e+03
2.445 0.0113 703.61 -702.94 29.90 7.07 1.4856e+06 2.2724e+05 9.3399e+03
3.078 0.0086 713.16 -712.14 37.28 -7.93 1.4856e+06 2.2724e+05 9.3437e+03
2.455 0.0091 722.79 -722.35 22.88 10.16 1.4856e+06 2.2724e+05 9.3475e+03
2.683 0.0114 732.78 -731.40 42.18 15.44 1.4856e+06 2.2723e+05 9.3513e+03
2.441 0.0096 737.92 -734.99 65.22 7.63 1.4856e+06 2.2723e+05 9.3551e+03
2.692 0.0097 736.38 -730.47 93.05 -2.77 1.4856e+06 2.2723e+05 9.3589e+03
2.578 0.0121 730.99 -724.77 95.09 -3.46 1.4856e+06 2.2723e+05 9.3627e+03
2.592 0.0108 729.89 -723.91 92.67 -10.70 1.4856e+06 2.2723e+05 9.3665e+03
2.501 0.0105 715.77 -712.30 70.34 -3.23 1.4856e+06 2.2723e+05 9.3703e+03
2.697 0.0106 710.61 -709.53 38.45 7.33 1.4856e+06 2.2722e+05 9.3741e+03
2.421 0.0098 729.21 -721.72 95.96 -40.66 1.4856e+06 2.2722e+05 9.3779e+03
2.678 0.0101 717.11 -709.99 91.11 -43.21 1.4856e+06 2.2722e+05 9.3817e+03
2.982 0.0142 714.94 -709.39 84.09 -28.83 1.4856e+06 2.2722e+05 9.3855e+03
2.699 0.0133 724.77 -717.05 95.11 -45.69 1.4856e+06 2.2722e+05 9.3893e+03
2.880 0.0090 731.39 -723.02 98.90 -48.99 1.4856e+06 2.2721e+05 9.3931e+03
2.322 0.0098 740.35 -732.60 105.93 -13.96 1.4856e+06 2.2721e+05 9.3969e+03
2.533 0.0114 729.41 -721.29 104.48 -29.41 1.4856e+06 2.2721e+05 9.4007e+03
2.938 0.0092 741.94 -733.95 105.04 -27.67 1.4856e+06 2.2721e+05 9.4045e+03
2.977 0.0082 741.88 -737.33 80.04 -17.97 1.4856e+06 2.2721e+05 9.4083e+03
2.262 0.0081 720.51 -717.47 61.03 -25.46 1.4856e+06 2.2721e+05 9.4121e+03
2.404 0.0134 723.78 -721.23 -41.81 -44.01 1.4856e+06 2.2720e+05 9.4159e+03
2.567 0.0114 714.87 -712.67 -17.19 -53.31 1.4856e+06 2.2720e+05 9.4197e+03
2.497 0.0092 700.12 -699.63 -7.47 -25.10 1.4856e+06 2.2720e+05 9.4235e+03
2.660 0.0091 701.01 -700.61 1.69 -23.52 1.4856e+06 2.2720e+05 9.4272e+03
2.244 0.0113 703.35 -701.85 -11.17 -44.47 1.4856e+06 2.2720e+05 9.4310e+03
-9999.900 -9999.9004 -9999.90 -9999.90 -9999.90 -9999.90 1.4856e+06 2.2719e+05 9.4348e+03
2.252 0.0117 703.36 -702.72 -1.48 -30.03 1.4856e+06 2.2719e+05 9.4386e+03
2.620 -9999.9004 698.62 -697.43 -6.79 -40.18 1.4856e+06 2.2719e+05 9.4424e+03
2.703 0.0097 693.40 -692.47 -0.66 -36.02 1.4856e+06 2.2719e+05 9.4462e+03
2.256 0.0116 713.22 -711.68 -14.28 -44.69 1.4856e+06 2.2719e+05 9.4500e+03
2.423 0.0107 722.43 -721.02 -18.42 -41.25 1.4857e+06 2.2718e+05 9.4538e+03
2.448 0.0096 705.46 -703.20 1.08 -56.46 1.4857e+06 2.2718e+05 9.4576e+03
2.444 0.0153 705.73 -699.89 28.47 -85.99 1.4857e+06 2.2718e+05 9.4614e+03
2.244 0.0101 706.84 -700.74 25.56 -89.03 1.4857e+06 2.2718e+05 9.4652e+03
2.429 0.0122 708.50 -704.25 3.78 -77.31 1.4857e+06 2.2718e+05 9.4690e+03
2.190 0.0149 694.91 -690.52 44.53 -64.03 1.4857e+06 2.2718e+05 9.4728e+03
2.550 0.0126 690.24 -687.10 19.52 -62.76 1.4857e+06 2.2717e+05 9.4766e+03
2.353 0.0141 690.31 -686.07 53.86 -54.25 1.4857e+06 2.2717e+05 9.4804e+03
2.798 0.0136 699.04 -693.82 76.44 -37.95 1.4857e+06 2.2717e+05 9.4842e+03
-9999.900 -9999.9004 -9999.90 -9999.90 -9999.90 -9999.90 1.4857e+06 2.2717e+05 9.4880e+03
2.561 -9999.9004 697.86 -695.30 58.55 -11.89 1.4857e+06 2.2717e+05 9.4918e+03
2.289 -9999.9004 692.35 -692.06 -1.28 -19.98 1.4857e+06 2.2716e+05 9.4956e+03
2.599 0.0125 708.42 -708.10 21.07 3.59 1.4857e+06 2.2716e+05 9.4994e+03
2.811 -9999.9004 700.17 -700.02 9.46 -10.96 1.4857e+06 2.2716e+05 9.5032e+03
2.206 0.0076 727.89 -716.98 72.96 -102.15 1.4857e+06 2.2716e+05 9.5070e+03
2.093 0.0159 696.47 -690.58 56.96 -70.19 1.4857e+06 2.2716e+05 9.5108e+03
2.613 0.0089 686.88 -684.51 16.65 -54.44 1.4857e+06 2.2716e+05 9.5146e+03
2.526 0.0122 693.83 -692.15 -3.74 -48.12 1.4857e+06 2.2715e+05 9.5184e+03
2.393 0.0124 742.58 -729.87 84.53 -107.57 1.4857e+06 2.2715e+05 9.5222e+03
2.153 0.0106 721.45 -711.93 69.28 -94.03 1.4857e+06 2.2715e+05 9.5260e+03
2.626 0.0081 754.36 -740.91 111.57 -87.57 1.4857e+06 2.2715e+05 9.5298e+03
2.224 0.0105 710.63 -702.45 73.00 -78.94 1.4857e+06 2.2715e+05 9.5336e+03
2.503 0.0096 699.71 -698.87 5.25 -33.85 1.4857e+06 2.2714e+05 9.5374e+03
2.490 0.0123 710.85 -710.83 1.50 -4.65 1.4857e+06 2.2714e+05 9.5412e+03
2.235 0.0118 725.34 -725.31 -3.99 -5.61 1.4857e+06 2.2714e+05 9.5450e+03
1.959 0.0120 -9999.90 -9999.90 -9999.90 -9999.90 1.4857e+06 2.2714e+05 9.5488e+03
-9999.900 -9999.9004 -9999.90 -9999.90 -9999.90 -9999.90 1.4857e+06 2.2714e+05 9.5526e+03
2.518 0.0107 708.33 -708.16 0.62 -15.51 1.4857e+06 2.2714e+05 9.5564e+03
2.234 0.0096 700.70 -699.69 -8.04 -36.69 1.4857e+06 2.2713e+05 9.5602e+03
2.692 0.0087 701.44 -701.36 -0.71 -10.62 1.4857e+06 2.2713e+05 9.5640e+03
2.352 0.0090 717.52 -717.47 -6.20 -5.96 1.4857e+06 2.2713e+05 9.5678e+03
2.081 0.0106 730.64 -730.50 -9.72 -10.63 1.4857e+06 2.2713e+05 9.5716e+03
2.220 0.0115 708.87 -708.80 0.03 -10.17 1.4857e+06 2.2713e+05 9.5754e+03
2.595 0.0090 740.70 -740.68 2.82 4.71 1.4857e+06 2.2712e+05 9.5792e+03
2.519 0.0094 728.84 -728.60 7.42 17.37 1.4857e+06 2.2712e+05 9.5830e+03
2.613 -9999.9004 733.46 -733.13 17.38 13.86 1.4857e+06 2.2712e+05 9.5868e+03
2.512 -9999.9004 708.67 -708.63 4.42 -6.07 1.4857e+06 2.2712e+05 9.5906e+03
2.671 0.0087 742.88 -741.50 33.91 29.91 1.4858e+06 2.2712e+05 9.5944e+03
-9999.900 -9999.9004 -9999.90 -9999.90 -9999.90 -9999.90 1.4858e+06 2.2712e+05 9.5981e+03
2.246 0.0113 713.35 -712.09 -7.59 -41.70 1.4858e+06 2.2711e+05 9.6019e+03
2.977 0.0087 772.62 -768.16 81.47 14.93 1.4858e+06 2.2711e+05 9.6057e+03
2.260 0.0133 720.44 -720.08 -11.45 -19.88 1.4858e+06 2.2711e+05 9.6095e+03
2.593 0.0115 720.90 -720.88 -3.87 2.63 1.4858e+06 2.2711e+05 9.6133e+03
2.682 0.0126 708.04 -707.71 21.18 3.89 1.4858e+06 2.2711e+05 9.6171e+03
2.576 0.0093 711.54 -711.50 5.23 -5.32 1.4858e+06 2.2710e+05 9.6209e+03
2.282 0.0102 721.29 -720.94 -9.63 -20.26 1.4858e+06 2.2710e+05 9.6247e+03
2.556 0.0096 695.65 -694.74 34.00 -10.56 1.4858e+06 2.2710e+05 9.6285e+03
2.706 0.0065 782.71 -773.30 120.43 -11.93 1.4858e+06 2.2710e+05 9.6323e+03
2.511 0.0136 757.01 -748.14 115.36 -5.89 1.4858e+06 2.2710e+05 9.6361e+03
2.322 0.0114 724.08 -715.50 109.88 -16.42 1.4858e+06 2.2709e+05 9.6399e+03
2.476 0.0105 -9999.90 -9999.90 -9999.90 -9999.90 1.4858e+06 2.2709e+05 9.6437e+03
2.626 0.0112 738.50 -727.85 115.89 -46.72 1.4858e+06 2.2709e+05 9.6475e+03
2.376 0.0104 772.08 -760.17 127.84 -43.66 1.4858e+06 2.2709e+05 9.6513e+03
2.848 0.0081 769.55 -756.44 135.97 -38.97 1.4858e+06 2.2709e+05 9.6551e+03
2.093 0.0116 746.39 -736.21 120.36 -24.50 1.4858e+06 2.2709e+05 9.6589e+03
2.640 0.0088 756.31 -743.96 128.31 -45.33 1.4858e+06 2.2708e+05 9.6627e+03
2.535 0.0087 763.99 -752.69 119.58 -53.17 1.4858e+06 2.2708e+05 9.6665e+03
-9999.900 -9999.9004 -9999.90 -9999.90 -9999.90 -9999.90 1.4858e+06 2.2708e+05 9.6703e+03
2.728 0.0056 767.97 -755.65 120.44 -65.40 1.4858e+06 2.2708e+05 9.6741e+03
2.899 0.0081 714.82 -714.70 11.83 -6.18 1.4858e+06 2.2708e+05 9.6779e+03
2.679 0.0089 735.32 -735.23 8.25 7.73 1.4858e+06 2.2707e+05 9.6817e+03
2.408 0.0086 703.60 -703.54 8.30 2.70 1.4858e+06 2.2707e+05 9.6855e+03
2.436 0.0104 689.67 -689.06 26.59 -11.62 1.4858e+06 2.2707e+05 9.6893e+03
2.291 0.0089 683.39 -681.69 39.58 -27.50 1.4858e+06 2.2707e+05 9.6931e+03
2.364 0.0102 709.91 -709.27 27.26 12.86 1.4858e+06 2.2707e+05 9.6969e+03
2.352 -9999.9004 687.49 -686.06 42.72 -11.81 1.4858e+06 2.2707e+05 9.7007e+03
2.356 -9999.9004 686.94 -686.32 28.16 -7.02 1.4858e+06 2.2706e+05 9.7045e+03
2.310 0.0096 699.44 -697.94 44.05 12.71 1.4858e+06 2.2706e+05 9.7083e+03
2.035 0.0088 701.73 -698.88 63.14 -0.32 1.4858e+06 2.2706e+05 9.7121e+03
2.099 0.0098 693.31 -689.86 68.73 -7.25 1.4858e+06 2.2706e+05 9.7159e+03
2.294 0.0104 700.67 -693.87 90.71 -35.38 1.4858e+06 2.2706e+05 9.7197e+03
1.982 0.0138 703.99 -695.87 82.62 -67.39 1.4858e+06 2.2705e+05 9.7235e+03
2.169 0.0113 704.71 -696.33 91.46 -58.17 1.4858e+06 2.2705e+05 9.7273e+03
2.191 0.0128 727.78 -716.39 105.59 -72.79 1.4858e+06 2.2705e+05 9.7311e+03
1.982 -9999.9004 710.07 -701.14 78.98 -79.76 1.4859e+06 2.2705e+05 9.7349e+03
2.830 0.0070 795.61 -783.04 119.83 -73.98 1.4859e+06 2.2705e+05 9.7387e+03
2.651 0.0055 757.11 -743.94 119.49 -74.10 1.4859e+06 2.2705e+05 9.7425e+03
2.375 0.0093 753.09 -740.85 119.40 -63.46 1.4859e+06 2.2704e+05 9.7463e+03
2.199 0.0107 737.81 -726.12 120.48 -51.05 1.4859e+06 2.2704e+05 9.7501e+03
2.307 0.0154 701.43 -695.54 89.87 -12.16 1.4859e+06 2.2704e+05 9.7539e+03
2.312 0.0125 701.84 -695.39 89.00 -33.09 1.4859e+06 2.2704e+05 9.7577e+03
2.353 0.0146 699.60 -691.79 73.91 -73.49 1.4859e+06 2.2704e+05 9.7615e+03
2.517 0.0121 716.04 -706.48 76.77 -87.72 1.4859e+06 2.2703e+05 9.7652e+03
2.081 0.0166 710.02 -701.42 74.89 -80.80 1.4859e+06 2.2703e+05 9.7690e+03
2.120 0.0122 707.31 -700.32 52.98 -83.88 1.4859e+06 2.2703e+05 9.7728e+03
2.385 0.0073 699.39 -694.77 33.53 -72.94 1.4859e+06 2.2703e+05 9.7766e+03
2.420 0.0102 693.08 -691.93 16.66 -36.34 1.4859e+06 2.2703e+05 9.7804e+03
2.166 0.0095 692.64 -687.93 48.94 -64.14 1.4859e+06 2.2703e+05 9.7842e+03
-9999.900 -9999.9004 -9999.90 -9999.90 -9999.90 -9999.90 1.4859e+06 2.2702e+05 9.7880e+03
2.042 0.0118 725.02 -716.14 63.20 -93.79 1.4859e+06 2.2702e+05 9.7918e+03
1.906 0.0151 711.19 -704.18 38.76 -91.79 1.4859e+06 2.2702e+05 9.7956e+03
2.711 0.0089 734.24 -723.86 83.97 -89.90 1.4859e+06 2.2702e+05 9.7994e+03
1.814 0.0147 703.50 -698.35 44.40 -72.45 1.4859e+06 2.2702e+05 9.8032e+03
2.100 0.0103 702.63 -697.73 19.89 -80.40 1.4859e+06 2.2701e+05 9.8070e+03
2.335 0.0116 707.04 -705.06 -6.33 -52.58 1.4859e+06 2.2701e+05 9.8108e+03
2.209 0.0121 736.13 -730.15 8.16 -93.29 1.4859e+06 2.2701e+05 9.8146e+03
2.053 0.0109 739.26 -730.30 40.77 -107.26 1.4859e+06 2.2701e+05 9.8184e+03
2.826 0.0080 781.77 -770.34 39.53 -127.17 1.4859e+06 2.2701e+05 9.8222e+03
2.101 0.0100 758.93 -747.38 56.57 -119.16 1.4859e+06 2.2700e+05 9.8260e+03
2.530 0.0087 757.34 -747.83 42.99 -111.63 1.4859e+06 2.2700e+05 9.8298e+03
2.314 0.0089 768.04 -759.11 27.84 -113.41 1.4859e+06 2.2700e+05 9.8336e+03
1.995 0.0122 737.64 -733.03 -7.20 -82.02 1.4859e+06 2.2700e+05 9.8374e+03
2.110 0.0093 746.49 -740.10 2.33 -97.39 1.4859e+06 2.2700e+05 9.8412e+03
2.305 0.0086 749.18 -742.62 -0.19 -98.98 1.4859e+06 2.2700e+05 9.8450e+03
2.358 0.0081 741.77 -736.85 -14.50 -84.04 1.4859e+06 2.2699e+05 9.8488e+03
2.610 0.0076 752.17 -747.17 -22.34 -83.69 1.4859e+06 2.2699e+05 9.8526e+03
2.216 0.0106 725.04 -720.53 -14.54 -79.46 1.4859e+06 2.2699e+05 9.8564e+03
2.274 0.0088 733.92 -731.23 -13.50 -61.28 1.4859e+06 2.2699e+05 9.8602e+03
2.221 0.0110 731.26 -726.37 19.60 -82.13 1.4859e+06 2.2699e+05 9.8640e+03
2.006 0.0078 728.32 -719.01 58.39 -100.30 1.4859e+06 2.2698e+05 9.8678e+03
2.583 -9999.9004 733.14 -728.52 6.34 -81.93 1.4859e+06 2.2698e+05 9.8716e+03
2.084 0.0090 736.79 -729.78 15.77 -100.11 1.4860e+06 2.2698e+05 9.8754e+03
2.002 0.0106 765.54 -756.65 6.19 -116.20 1.4860e+06 2.2698e+05 9.8792e+03
2.293 0.0109 731.79 -723.08 62.31 -93.77 1.4860e+06 2.2698e+05 9.8830e+03
2.196 0.0123 745.93 -740.19 -3.89 -92.29 1.4860e+06 2.2698e+05 9.8868e+03
2.189 0.0077 721.05 -717.61 18.21 -67.94 1.4860e+06 2.2697e+05 9.8906e+03
2.313 0.0099 739.15 -737.02 -18.47 -52.89 1.4860e+06 2.2697e+05 9.8944e+03
2.433 0.0111 722.97 -720.40 -9.21 -60.17 1.4860e+06 2.2697e+05 9.8982e+03
2.227 0.0105 742.69 -741.50 -28.44 -31.13 1.4860e+06 2.2697e+05 9.9020e+03
-9999.900 -9999.9004 -9999.90 -9999.90 -9999.90 -9999.90 1.4860e+06 2.2697e+05 9.9058e+03
2.417 0.0107 699.14 -699.00 12.52 -6.11 1.4860e+06 2.2696e+05 9.9096e+03
2.109 -9999.9004 711.12 -710.95 -12.65 -9.14 1.4860e+06 2.2696e+05 9.9134e+03
2.453 0.0071 721.99 -721.87 -9.38 9.25 1.4860e+06 2.2696e+05 9.9172e+03
2.038 0.0094 735.05 -734.09 -26.57 -26.75 1.4860e+06 2.2696e+05 9.9210e+03
1.978 0.0104 739.66 -738.79 -25.56 -25.17 1.4860e+06 2.2696e+05 9.9248e+03
2.460 0.0089 752.14 -752.01 -2.14 14.08 1.4860e+06 2.2696e+05 9.9286e+03
2.324 0.0113 762.83 -761.98 10.99 34.14 1.4860e+06 2.2695e+05 9.9324e+03
2.473 0.0084 757.70 -757.04 12.02 29.45 1.4860e+06 2.2695e+05 9.9361e+03
2.703 0.0065 767.50 -766.84 12.20 29.44 1.4860e+06 2.2695e+05 9.9399e+03
2.331 0.0081 764.44 -764.08 -2.14 23.49 1.4860e+06 2.2695e+05 9.9437e+03
2.364 0.0083 768.07 -766.48 31.55 37.95 1.4860e+06 2.2695e+05 9.9475e+03
2.306 0.0086 765.88 -764.29 33.17 36.41 1.4860e+06 2.2694e+05 9.9513e+03
1.837 0.0089 744.31 -743.99 -8.21 -20.14 1.4860e+06 2.2694e+05 9.9551e+03
2.442 0.0086 755.24 -752.22 53.12 41.53 1.4860e+06 2.2694e+05 9.9589e+03
2.493 0.0075 766.63 -764.66 36.34 41.18 1.4860e+06 2.2694e+05 9.9627e+03
2.161 0.0117 760.67 -760.24 15.38 20.76 1.4860e+06 2.2694e+05 9.9665e+03
2.695 0.0081 784.89 -783.29 37.37 33.54 1.4860e+06 2.2694e+05 9.9703e+03
2.388 0.0110 750.02 -749.04 18.70 33.38 1.4860e+06 2.2693e+05 9.9741e+03
2.245 0.0083 768.43 -766.87 36.41 32.74 1.4860e+06 2.2693e+05 9.9779e+03
1.991 0.0102 757.12 -751.52 88.59 24.24 1.4860e+06 2.2693e+05 9.9817e+03
2.145 0.0109 748.81 -743.34 85.88 28.04 1.4860e+06 2.2693e+05 9.9855e+03
2.298 0.0098 741.75 -741.49 -17.10 -9.69 1.4860e+06 2.2693e+05 9.9893e+03
2.516 0.0066 768.59 -767.98 17.48 25.23 1.4860e+06 2.2692e+05 9.9931e+03
2.184 0.0111 747.93 -747.88 -8.70 1.31 1.4860e+06 2.2692e+05 9.9969e+03
1.957 0.0107 767.58 -767.48 -12.37 -3.34 1.4860e+06 2.2692e+05 1.0001e+04
2.071 0.0107 778.66 -776.75 -22.84 -49.51 1.4860e+06 2.2692e+05 1.0005e+04
2.522 0.0072 790.56 -788.37 46.22 36.30 1.4860e+06 2.2692e+05 1.0008e+04
2.142 0.0097 772.73 -772.23 14.01 24.24 1.4860e+06 2.2691e+05 1.0012e+04
2.145 0.0113 734.67 -733.63 -7.76 -38.23 1.4861e+06 2.2691e+05 1.0016e+04
2.341 0.0082 738.55 -737.63 -11.52 -35.14 1.4861e+06 2.2691e+05 1.0020e+04
-9999.900 -9999.9004 -9999.90 -9999.90 -9999.90 -9999.90 1.4861e+06 2.2691e+05 1.0023e+04
2.341 0.0082 732.72 -730.50 -9.57 -56.23 1.4861e+06 2.2691e+05 1.0027e+04
1.995 0.0119 745.49 -740.37 2.15 -87.25 1.4861e+06 2.2691e+05 1.0031e+04
2.196 0.0126 751.81 -746.68 10.14 -87.09 1.4861e+06 2.2690e+05 1.0035e+04
2.256 0.0102 762.80 -755.58 29.42 -100.48 1.4861e+06 2.2690e+05 1.0039e+04
2.440 0.0075 766.88 -760.39 18.27 -97.83 1.4861e+06 2.2690e+05 1.0042e+04
2.169 0.0106 762.00 -756.15 31.21 -88.95 1.4861e+06 2.2690e+05 1.0046e+04
2.203 0.0081 759.77 -754.54 15.76 -87.58 1.4861e+06 2.2690e+05 1.0050e+04
2.134 0.0103 769.86 -763.54 26.09 -94.94 1.4861e+06 2.2689e+05 1.0054e+04
2.140 0.0101 756.30 -750.46 28.09 -89.47 1.4861e+06 2.2689e+05 1.0058e+04
-9999.900 -9999.9004 -9999.90 -9999.90 -9999.90 -9999.90 1.4861e+06 2.2689e+05 1.0061e+04
2.380 0.0085 794.67 -794.65 -3.82 -2.27 1.4861e+06 2.2689e+05 1.0065e+04
2.260 0.0085 783.90 -783.79 -12.49 1.88 1.4861e+06 2.2689e+05 1.0069e+04
2.287 0.0091 794.41 -794.38 -7.52 -0.95 1.4861e+06 2.2689e+05 1.0073e+04
2.178 0.0084 789.25 -789.19 -7.65 6.12 1.4861e+06 2.2688e+05 1.0077e+04
2.379 0.0098 779.51 -779.42 -11.77 -1.50 1.4861e+06 2.2688e+05 1.0080e+04
2.552 0.0088 781.31 -781.21 -6.29 10.86 1.4861e+06 2.2688e+05 1.0084e+04
2.096 0.0088 778.87 -778.67 -16.81 5.51 1.4861e+06 2.2688e+05 1.0088e+04
1.924 0.0090 775.90 -775.78 -11.86 6.44 1.4861e+06 2.2688e+05 1.0092e+04
-9999.900 -9999.9004 -9999.90 -9999.90 -9999.90 -9999.90 1.4861e+06 2.2687e+05 1.0096e+04
2.239 0.0103 742.21 -742.12 -9.37 -6.95 1.4861e+06 2.2687e+05 1.0099e+04
2.527 0.0088 727.78 -727.26 -5.41 -26.86 1.4861e+06 2.2687e+05 1.0103e+04
2.193 0.0090 736.81 -736.70 -7.99 -9.27 1.4861e+06 2.2687e+05 1.0107e+04
2.486 0.0085 734.95 -734.93 -3.19 4.44 1.4861e+06 2.2687e+05 1.0111e+04
2.428 0.0103 731.48 -731.46 2.42 4.47 1.4861e+06 2.2687e+05 1.0115e+04
2.207 -9999.9004 715.51 -714.65 6.30 -34.48 1.4861e+06 2.2686e+05 1.0118e+04
2.465 0.0094 714.46 -713.04 10.92 -43.55 1.4861e+06 2.2686e+05 1.0122e+04
2.616 0.0081 741.07 -741.00 -0.68 -10.20 1.4861e+06 2.2686e+05 1.0126e+04
2.652 0.0089 773.32 -772.66 8.93 30.63 1.4861e+06 2.2686e+05 1.0130e+04
2.591 0.0102 770.94 -770.52 10.76 22.84 1.4861e+06 2.2686e+05 1.0134e+04
2.547 0.0084 774.09 -773.49 7.01 29.65 1.4861e+06 2.2685e+05 1.0137e+04
-9999.900 -9999.9004 -9999.90 -9999.90 -9999.90 -9999.90 1.4861e+06 2.2685e+05 1.0141e+04
2.382 0.0098 756.19 -755.65 19.49 21.04 1.4861e+06 2.2685e+05 1.0145e+04
2.581 0.0071 766.42 -765.69 15.73 29.51 1.4861e+06 2.2685e+05 1.0149e+04
2.979 0.0063 773.09 -771.83 34.95 26.87 1.4861e+06 2.2685e+05 1.0153e+04
2.329 0.0090 749.31 -748.31 28.80 25.97 1.4862e+06 2.2685e+05 1.0156e+04
2.233 0.0086 729.27 -726.87 -1.13 -59.12 1.4862e+06 2.2684e+05 1.0160e+04
2.452 0.0078 783.30 -779.06 73.48 34.94 1.4862e+06 2.2684e+05 1.0164e+04
2.105 0.0075 743.01 -741.33 -4.12 -49.77 1.4862e+06 2.2684e+05 1.0168e+04
2.538 0.0091 762.63 -761.29 27.89 35.44 1.4862e+06 2.2684e+05 1.0172e+04
2.499 0.0065 772.58 -770.98 34.78 35.55 1.4862e+06 2.2684e+05 1.0175e+04
2.364 0.0095 772.20 -770.12 39.17 40.94 1.4862e+06 2.2683e+05 1.0179e+04
2.588 0.0102 763.45 -761.28 42.01 39.19 1.4862e+06 2.2683e+05 1.0183e+04
-9999.900 -9999.9004 -9999.90 -9999.90 -9999.90 -9999.90 1.4862e+06 2.2683e+05 1.0187e+04
2.337 0.0093 753.63 -753.10 8.20 27.14 1.4862e+06 2.2683e+05 1.0191e+04
2.292 0.0085 772.61 -771.86 17.71 29.25 1.4862e+06 2.2683e+05 1.0194e+04
1.944 0.0127 782.25 -782.13 3.89 13.38 1.4862e+06 2.2683e+05 1.0198e+04
2.132 0.0123 770.07 -769.93 -5.03 13.96 1.4862e+06 2.2682e+05 1.0202e+04
2.704 0.0083 750.60 -745.34 12.99 -87.72 1.4862e+06 2.2682e+05 1.0206e+04
2.428 0.0100 -9999.90 -9999.90 -9999.90 -9999.90 1.4862e+06 2.2682e+05 1.0210e+04
2.233 0.0099 751.27 -743.83 10.87 -104.90 1.4862e+06 2.2682e+05 1.0213e+04
1.816 0.0127 721.08 -716.50 31.81 -74.66 1.4862e+06 2.2682e+05 1.0217e+04
2.985 0.0076 743.67 -740.42 -8.25 -69.03 1.4862e+06 2.2681e+05 1.0221e+04
2.585 0.0099 717.45 -716.11 -5.35 -43.51 1.4862e+06 2.2681e+05 1.0225e+04
2.365 0.0104 739.39 -736.07 -12.48 -68.88 1.4862e+06 2.2681e+05 1.0229e+04
2.152 0.0097 740.56 -738.70 -18.61 -49.02 1.4862e+06 2.2681e+05 1.0232e+04
2.020 0.0118 736.15 -734.76 -7.97 -44.45 1.4862e+06 2.2681e+05 1.0236e+04
2.504 0.0143 744.63 -743.67 31.56 20.82 1.4862e+06 2.2680e+05 1.0240e+04
2.299 0.0113 746.91 -746.34 17.07 23.49 1.4862e+06 2.2680e+05 1.0244e+04
2.330 0.0103 748.34 -748.12 6.24 16.83 1.4862e+06 2.2680e+05 1.0248e+04
2.261 0.0106 736.44 -736.30 -6.29 -13.14 1.4862e+06 2.2680e+05 1.0251e+04
2.505 -9999.9004 723.30 -723.22 9.84 3.27 1.4862e+06 2.2680e+05 1.0255e+04
-9999.900 -9999.9004 -9999.90 -9999.90 -9999.90 -9999.90 1.4862e+06 2.2680e+05 1.0259e+04
2.120 0.0098 728.30 -727.02 -5.32 -42.81 1.4862e+06 2.2679e+05 1.0263e+04
2.293 0.0118 742.32 -741.37 17.08 33.26 1.4862e+06 2.2679e+05 1.0267e+04
2.442 0.0094 766.84 -766.46 6.41 23.00 1.4862e+06 2.2679e+05 1.0270e+04
2.217 0.0108 752.46 -752.22 -14.99 -11.72 1.4862e+06 2.2679e+05 1.0274e+04
2.070 0.0103 747.34 -742.25 2.49 -86.96 1.4862e+06 2.2679e+05 1.0278e+04
2.097 0.0105 745.73 -740.34 17.44 -87.81 1.4862e+06 2.2678e+05 1.0282e+04
2.145 0.0116 733.02 -729.69 0.65 -69.76 1.4862e+06 2.2678e+05 1.0286e+04
2.134 0.0103 738.01 -734.99 -16.51 -64.62 1.4862e+06 2.2678e+05 1.0289e+04
2.233 0.0099 740.96 -739.89 -14.20 -37.29 1.4862e+06 2.2678e+05 1.0293e+04
2.384 0.0099 748.29 -744.47 -16.71 -73.63 1.4863e+06 2.2678e+05 1.0297e+04
1.961 0.0135 745.03 -742.29 -20.86 -60.30 1.4863e+06 2.2678e+05 1.0301e+04
2.174 0.0100 754.69 -751.87 -18.94 -62.32 1.4863e+06 2.2677e+05 1.0305e+04
2.007 0.0122 741.19 -737.91 -15.90 -67.77 1.4863e+06 2.2677e+05 1.0308e+04
1.926 0.0105 764.26 -760.91 -24.56 -67.20 1.4863e+06 2.2677e+05 1.0312e+04
1.691 0.0180 761.16 -757.48 -18.94 -72.38 1.4863e+06 2.2677e+05 1.0316e+04
2.456 0.0106 717.68 -717.56 1.78 -13.16 1.4863e+06 2.2677e+05 1.0320e+04
2.199 0.0145 716.84 -716.47 3.73 -22.79 1.4863e+06 2.2676e+05 1.0324e+04
2.254 0.0115 716.75 -715.51 -4.98 -41.88 1.4863e+06 2.2676e+05 1.0327e+04
2.180 0.0113 755.97 -753.48 -18.31 -58.56 1.4863e+06 2.2676e+05 1.0331e+04
1.987 0.0167 750.73 -749.96 -18.43 -28.55 1.4863e+06 2.2676e+05 1.0335e+04
2.173 0.0117 730.77 -730.69 1.96 -10.76 1.4863e+06 2.2676e+05 1.0339e+04
2.492 0.0102 725.13 -725.08 -5.69 -6.06 1.4863e+06 2.2676e+05 1.0343e+04
2.462 0.0107 718.38 -718.28 5.11 -11.30 1.4863e+06 2.2675e+05 1.0346e+04
2.430 0.0114 723.61 -723.47 12.66 6.40 1.4863e+06 2.2675e+05 1.0350e+04
2.414 0.0085 729.09 -728.40 24.91 19.65 1.4863e+06 2.2675e+05 1.0354e+04
2.220 0.0123 733.56 -732.65 25.22 26.33 1.4863e+06 2.2675e+05 1.0358e+04
2.152 0.0116 777.50 -777.48 -2.34 4.82 1.4863e+06 2.2675e+05 1.0361e+04
2.184 0.0136 755.14 -754.72 -22.39 -11.72 1.4863e+06 2.2674e+05 1.0365e+04
2.355 0.0099 784.71 -784.70 -2.36 1.30 1.4863e+06 2.2674e+05 1.0369e+04
-9999.900 -9999.9004 -9999.90 -9999.90 -9999.90 -9999.90 1.4863e+06 2.2674e+05 1.0373e+04
-9999.900 -9999.9004 -9999.90 -9999.90 -9999.90 -9999.90 1.4863e+06 2.2674e+05 1.0377e+04
2.299 0.0113 772.16 -771.70 15.15 22.00 1.4863e+06 2.2674e+05 1.0380e+04
2.108 0.0135 750.21 -749.99 -15.31 -9.86 1.4863e+06 2.2674e+05 1.0384e+04
1.869 0.0135 752.29 -750.74 -30.07 -37.84 1.4863e+06 2.2673e+05 1.0388e+04
2.018 0.0100 749.62 -747.22 -27.24 -53.41 1.4863e+06 2.2673e+05 1.0392e+04
1.981 0.0081 751.30 -748.58 -21.05 -60.30 1.4863e+06 2.2673e+05 1.0396e+04
2.558 0.0105 760.34 -9999.90 -9999.90 -9999.90 1.4863e+06 2.2673e+05 1.0399e+04
2.009 0.0146 752.05 -750.04 -16.76 -52.37 1.4863e+06 2.2673e+05 1.0403e+04
2.012 0.0102 758.67 -757.09 -26.26 -41.30 1.4863e+06 2.2672e+05 1.0407e+04
1.928 0.0121 757.78 -756.73 -24.07 -31.78 1.4863e+06 2.2672e+05 1.0411e+04
2.095 0.0105 782.79 -781.38 -28.54 -37.35 1.4863e+06 2.2672e+05 1.0415e+04
1.840 0.0134 761.93 -760.20 -26.03 -44.29 1.4863e+06 2.2672e+05 1.0418e+04
1.710 0.0134 744.22 -742.66 -18.52 -44.38 1.4863e+06 2.2672e+05 1.0422e+04
2.011 0.0111 758.12 -756.25 -27.00 -45.85 1.4863e+06 2.2671e+05 1.0426e+04
2.186 0.0113 775.59 -773.40 -28.43 -50.72 1.4863e+06 2.2671e+05 1.0430e+04
-9999.900 -9999.9004 -9999.90 -9999.90 -9999.90 -9999.90 1.4864e+06 2.2671e+05 1.0434e+04
2.180 0.0103 787.67 -784.60 -15.54 -67.73 1.4864e+06 2.2671e+05 1.0437e+04
1.907 0.0098 750.38 -748.83 -28.22 -39.12 1.4864e+06 2.2671e+05 1.0441e+04
