3.274	0.0199	679.28	-674.22	30.29	-77.04	1485000.0	227620.0	8546.2	
3.424	0.018	670.87	-668.87	-6.63	-51.27	1485000.0	227620.0	8550.0	
3.334	0.0134	673.69	-671.83	-11.42	-48.66	1485000.0	227620.0	8553.8	
3.518	0.0138	668.05	-663.89	2.93	-74.41	1485000.0	227620.0	8557.6	
3.375	0.0192	662.88	-660.76	4.34	-52.87	1485000.0	227620.0	8561.4	
3.24	0.0168	662.41	-660.83	8.15	-45.07	1485000.0	227610.0	8565.2	
3.218	0.0158	665.43	-662.43	9.27	-62.36	1485000.0	227610.0	8569.0	
3.38	0.013	666.61	-664.37	10.6	-53.66	1485000.0	227610.0	8572.8	
3.304	0.0203	663.48	-661.29	14.89	-51.87	1485000.0	227610.0	8576.6	
3.405	0.0175	665.86	-663.89	11.37	-49.88	1485000.0	227610.0	8580.4	
3.488	0.0218	666.02	-664.15	14.13	-47.81	1485000.0	227610.0	8584.1	
3.64	0.0151	665.08	-663.64	13.85	-41.48	1485000.0	227600.0	8587.9	
3.59	0.0151	664.19	-662.71	16.0	-41.36	1485000.0	227600.0	8591.7	
3.618	0.015	663.28	-662.27	18.81	-31.27	1485000.0	227600.0	8595.5	
3.617	0.0146	663.04	-661.0	20.97	-47.45	1485000.0	227600.0	8599.3	
3.515	0.0168	662.35	-661.08	23.97	-33.31	1485000.0	227600.0	8603.1	
3.679	0.0134	667.12	-666.15	4.94	-35.58	1485000.0	227590.0	8606.9	
3.589	0.0155	665.92	-665.18	7.58	-30.45	1485100.0	227590.0	8610.7	
3.589	0.0155	665.92	-665.18	7.58	-30.45	1485100.0	227590.0	8614.5	
3.771	0.0152	664.95	-664.33	7.7	-27.76	1485100.0	227590.0	8618.3	
3.682	0.0131	661.59	-660.65	9.7	-33.91	1485100.0	227590.0	8622.1	
3.726	0.014	666.61	-666.15	7.5	-23.36	1485100.0	227590.0	8625.9	
3.653	0.0129	663.5	-662.91	13.74	-24.45	1485100.0	227580.0	8629.7	
3.79	0.0148	666.47	-666.19	11.33	-15.82	1485100.0	227580.0	8633.5	
3.93	0.0134	664.25	-664.08	8.58	-12.07	1485100.0	227580.0	8637.3	
3.838	0.0132	659.64	-659.33	6.37	-19.17	1485100.0	227580.0	8641.1	
3.229	0.0159	673.51	-673.4	11.85	-2.21	1485100.0	227580.0	8644.9	
3.886	0.014	668.96	-668.92	6.16	-3.33	1485100.0	227570.0	8648.7	
3.913	0.0141	669.44	-669.32	11.07	-6.44	1485100.0	227570.0	8652.5	
3.728	0.0155	670.92	-670.8	12.31	1.78	1485100.0	227570.0	8656.3	
3.67	0.0124	671.26	-671.11	-7.68	-12.29	1485100.0	227570.0	8660.1	
3.473	0.0157	668.93	-668.78	13.69	1.84	1485100.0	227570.0	8663.9	
3.406	0.0135	671.57	-671.57	2.06	1.13	1485100.0	227560.0	8667.7	
3.605	0.0171	678.8	-678.78	4.28	3.08	1485100.0	227560.0	8671.5	
3.531	0.0153	673.46	-673.23	15.83	7.31	1485100.0	227560.0	8675.3	
3.453	0.0167	673.36	-673.31	3.61	7.27	1485100.0	227560.0	8679.1	
3.926	0.0127	673.08	-673.02	8.37	2.92	1485100.0	227560.0	8682.9	
3.473	0.0127	678.03	-677.64	19.36	12.02	1485100.0	227560.0	8686.7	
3.59	0.0132	684.03	-683.9	5.86	11.91	1485100.0	227550.0	8690.5	
3.523	0.0131	681.39	-681.18	12.39	11.52	1485100.0	227550.0	8694.3	
3.582	0.0145	685.29	-685.22	-7.82	6.03	1485100.0	227550.0	8698.1	
3.658	0.0145	675.13	-675.13	-1.33	-1.67	1485100.0	227550.0	8701.9	
3.047	0.0168	683.45	-683.3	-12.43	-7.3	1485100.0	227550.0	8705.7	
3.209	0.0165	683.32	-682.99	-16.31	-13.58	1485100.0	227540.0	8709.5	
3.595	0.0166	670.17	-670.14	-1.79	-6.3	1485100.0	227540.0	8713.3	
3.601	0.0176	657.83	-657.4	0.19	-23.75	1485100.0	227540.0	8717.1	
3.767	0.0135	675.58	-675.41	-9.49	-11.9	1485100.0	227540.0	8720.9	
3.475	0.0158	668.5	-668.4	11.35	-2.76	1485100.0	227540.0	8724.7	
3.26	0.0144	673.7	-672.12	46.15	1.2800000000000002	1485100.0	227540.0	8728.5	
3.26	0.0144	673.7	-672.12	46.15	1.28	1485100.0	227530.0	8732.3	
3.375	0.0132	683.14	-682.61	-12.660000000000004	-23.69	1485100.0	227530.0	8736.1	
2.545	0.0186	683.14	-682.61	-12.66	-23.69	1485100.0	227530.0	8739.9	
3.057	0.0174	681.34	-680.88	-6.33	-24.17	1485100.0	227530.0	8743.7	
2.661	0.0134	698.05	-697.08	-15.27	-33.42	1485100.0	227530.0	8747.5	
3.031	0.0148	684.25	-684.24	3.13	-1.76	1485200.0	227520.0	8751.2	
2.399	0.0229	694.54	-692.06	58.34	5.86	1485200.0	227520.0	8755.0	
2.697	0.019	671.34	-670.29	37.44	3.38	1485200.0	227520.0	8758.8	
2.796	0.0164	663.89	-663.12	-9.85	-30.37	1485200.0	227520.0	8762.6	
3.457	0.0164	678.58	-678.25	-14.27	-15.55	1485200.0	227520.0	8766.4	
3.188	0.0165	676.87	-676.87	-2.64	0.09	1485200.0	227520.0	8770.2	
2.512	0.0212	677.65	-677.44	-10.7	-12.91	1485200.0	227510.0	8774.0	
2.897	0.0162	683.0	-682.94	-6.52	-5.6	1485200.0	227510.0	8777.8	
2.852	0.0181	692.7	-691.14	42.16	19.46	1485200.0	227510.0	8781.6	
2.893	0.0127	699.17	-698.4	26.82	18.92	1485200.0	227510.0	8785.4	
2.995	0.0168	697.76	-695.97	45.44	20.46	1485200.0	227510.0	8789.2	
3.171	0.0161	679.63	-679.46	8.69	12.73	1485200.0	227500.0	8793.0	
2.825	0.0169	688.96	-688.9	1.35	9.07	1485200.0	227500.0	8796.8	
3.17	0.0125	675.72	-675.7	3.33	3.08	1485200.0	227500.0	8800.6	
2.526	0.0179	689.93	-689.39	-20.17	-18.74	1485200.0	227500.0	8804.4	
3.015	0.0144	684.26	-683.73	-18.73	-19.38	1485200.0	227500.0	8808.2	
3.492	0.0192	691.6	-691.5	-6.85	8.98	1485200.0	227500.0	8812.0	
3.396	0.0171	678.07	-678.04	-4.43	-4.75	1485200.0	227490.0	8815.8	
3.475	0.0156	659.6	-659.4	10.44	-12.44	1485200.0	227490.0	8819.6	
3.261	0.0137	692.68	-692.56	-11.42	5.65	1485200.0	227490.0	8823.4	
3.139	0.0155	681.64	-681.44	-14.86	-7.2	1485200.0	227490.0	8827.2	
2.728	0.0163	683.65	-683.23	-15.28	-18.44	1485200.0	227490.0	8831.0	
3.066	0.0148	677.16	-674.97	-20.59	-50.4	1485200.0	227480.0	8834.8	
2.834	0.0164	676.83	-675.12	-18.01	-44.56	1485200.0	227480.0	8838.6	
2.44	0.0207	702.58	-700.62	-24.98	-46.16	1485200.0	227480.0	8842.4	
2.719	0.0165	693.78	-691.86	-26.98	-43.89	1485200.0	227480.0	8846.2	
2.719	0.0165	693.78	-691.86	-26.98	-43.89	1485200.0	227480.0	8850.0	
2.942	0.0172	680.49	-680.13	-15.44	-16.08	1485200.0	227480.0	8853.8	
2.951	0.0172	677.54	-677.31	-8.12	-15.76	1485200.0	227470.0	8857.6	
2.661	0.0193	704.59	-704.46	-1.35	13.17	1485200.0	227470.0	8861.4	
2.938	0.0152	709.14	-708.99	-12.43	7.93	1485200.0	227470.0	8865.2	
2.511	0.0182	734.0	-733.38	-25.23	-16.31	1485200.0	227470.0	8869.0	
2.924	0.0122	704.96	-704.62	1.29	21.87	1485200.0	227470.0	8872.8	
3.06	0.0146	703.14	-702.98	-3.02	14.89	1485200.0	227460.0	8876.6	
3.402	0.0109	734.46	-733.94	20.28	18.62	1485200.0	227460.0	8880.4	
2.835	0.0172	723.35	-722.27	25.36	30.45	1485200.0	227460.0	8884.2	
3.079	0.0106	705.87	-705.37	12.78	23.33	1485200.0	227460.0	8888.0	
3.078	0.0155	665.61	-665.44	-0.51	-15.0	1485300.0	227460.0	8891.8	
3.151	0.012	686.69	-686.61	-5.95	-7.88	1485300.0	227450.0	8895.6	
3.339	0.0155	680.82	-680.79	1.75	-6.93	1485300.0	227450.0	8899.4	
2.573	0.0222	685.63	-685.1	-7.79	-25.74	1485300.0	227450.0	8903.2	
2.91	0.0182	689.12	-688.73	14.68	17.88	1485300.0	227450.0	8907.0	
2.925	0.0139	685.58	-684.84	27.51	15.84	1485300.0	227450.0	8910.8	
2.841	0.0181	691.38	-691.11	10.68	16.23	1485300.0	227450.0	8914.6	
3.138	0.0114	714.91	-714.82	-7.53	8.48	1485300.0	227440.0	8918.4	
2.455	0.0168	705.19	-705.12	-7.23	-6.44	1485300.0	227440.0	8922.1	
2.937	0.0146	704.84	-704.74	-9.14	7.56	1485300.0	227440.0	8925.9	
3.114	0.0146	706.63	-705.44	-16.46	-37.49	1485300.0	227440.0	8929.7	
2.983	0.0102	706.54	-706.39	-14.05	-3.79	1485300.0	227440.0	8933.5	
2.606	0.0134	704.4	-703.59	-21.79	-25.83	1485300.0	227430.0	8937.3	
2.26	0.0213	699.82	-699.44	-18.84	-13.36	1485300.0	227430.0	8941.1	
2.07	0.0218	701.36	-700.43	-17.05	-31.92	1485300.0	227430.0	8944.9	
2.07	0.0218	701.36	-700.43	-17.05	-31.92	1485300.0	227430.0	8948.7	
2.443	0.0165	706.54	-706.48	-9.18	-0.9	1485300.0	227430.0	8952.5	
2.538	0.0133	732.2	-731.35	14.64	32.09	1485300.0	227430.0	8956.3	
2.664	0.0126	733.61	-732.01	36.67	31.74	1485300.0	227420.0	8960.1	
2.75	0.0131	772.94	-770.14	61.61	23.06	1485300.0	227420.0	8963.9	
2.75	0.0136	772.94	-770.14	61.61	23.06	1485300.0	227420.0	8967.7	
2.49	0.0136	760.26	-757.17	60.76	31.55	1485300.0	227420.0	8971.5	
2.88	0.0097	689.94	-689.93	3.01	1.77	1485300.0	227420.0	8975.3	
2.498	0.0109	735.18	-731.68	61.85	36.17	1485300.0	227410.0	8979.1	
2.539	0.0109	713.56	-712.83	24.42	21.09	1485300.0	227410.0	8982.9	
2.298	0.0145	723.24	-720.22	58.61	30.55	1485300.0	227410.0	8986.7	
2.006	0.0131	731.41	-730.26	36.37	19.06	1485300.0	227410.0	8990.5	
2.361	0.0192	710.93	-710.79	-13.87	-2.78	1485300.0	227410.0	8994.3	
2.248	0.0196	710.92	-710.68	-18.31	0.79	1485300.0	227410.0	8998.1	
2.725	0.0126	697.82	-697.31	-15.6	-21.54	1485300.0	227400.0	9001.9	
2.786	0.0134	693.53	-691.41	-16.34	-51.66	1485300.0	227400.0	9005.7	
2.961	0.0105	692.79	-689.06	-12.0	-70.79	1485300.0	227400.0	9009.5	
2.668	0.015	692.5	-689.67	-12.31	-61.34	1485300.0	227400.0	9013.3	
2.372	0.0189	687.54	-686.09	-14.16	-42.26	1485300.0	227400.0	9017.1	
2.605	0.0159	688.66	-687.19	-14.11	-42.84	1485300.0	227390.0	9020.9	
2.652	0.0138	688.34	-687.54	-13.11	-30.51	1485300.0	227390.0	9024.7	
2.702	0.0189	686.65	-685.69	32.99	14.79	1485300.0	227390.0	9028.5	
3.168	0.0082	750.3	-748.19	-9.18	-55.46	1485400.0	227390.0	9032.3	
2.72	0.0097	793.73	-789.48	-21.54	-79.23	1485400.0	227390.0	9036.1	
2.409	0.0189	746.43	-742.76	-36.88	-64.11	1485400.0	227390.0	9039.9	
2.23	0.0138	758.93	-756.38	-35.3	-51.2	1485400.0	227380.0	9043.7	
2.325	0.014	730.12	-728.81	-34.27	-27.15	1485400.0	227380.0	9047.5	
2.338	0.0188	728.0	-727.27	-28.48	-15.98	1485400.0	227380.0	9051.3	
2.416	0.0125	739.72	-737.74	-37.23	-39.33	1485400.0	227380.0	9055.1	
2.404	0.0162	722.86	-721.08	22.26	45.63	1485400.0	227380.0	9058.9	
2.414	0.0147	720.57	-718.94	24.1	41.97	1485400.0	227370.0	9062.7	
2.44	0.0129	715.91	-715.79	-5.29	11.72	1485400.0	227370.0	9066.5	
2.545	0.0155	717.15	-716.64	-2.99	26.89	1485400.0	227370.0	9070.3	
2.814	0.0097	703.96	-703.78	-9.63	13.04	1485400.0	227370.0	9074.1	
2.457	0.0133	700.13	-699.57	10.38	26.06	1485400.0	227370.0	9077.9	
2.56	0.0166	682.39	-682.36	-0.6400000000000006	5.629999999999999	1485400.0	227360.0	9081.7	
2.56	0.0166	682.39	-682.36	-0.64	5.63	1485400.0	227360.0	9085.5	
2.717	0.0162	698.68	-698.49	-9.59	13.33	1485400.0	227360.0	9089.2	
2.784	0.0118	708.57	-708.1	5.34	25.37	1485400.0	227360.0	9093.0	
2.497	0.0143	677.49	-675.92	46.01	-0.23	1485400.0	227360.0	9096.8	
2.745	0.0122	674.7	-673.66	37.35	3.44	1485400.0	227360.0	9100.6	
2.635	0.0134	694.88	-694.11	24.75	21.4	1485400.0	227350.0	9104.4	
2.908	0.012	704.71	-704.53	7.07	14.07	1485400.0	227350.0	9108.2	
2.563	0.0128	720.55	-717.1	64.92	27.42	1485400.0	227350.0	9112.0	
2.768	0.0155	702.09	-701.93	7.02	13.49	1485400.0	227350.0	9115.8	
2.895	0.0086	704.33	-704.08	6.22	17.95	1485400.0	227350.0	9119.6	
2.95	0.0086	698.07	-696.98	30.76	24.14	1485400.0	227340.0	9123.4	
2.456	0.0173	691.28	-690.83	-20.03	-14.71	1485400.0	227340.0	9127.2	
2.432	0.0181	683.32	-683.06	-13.26	-13.49	1485400.0	227340.0	9131.0	
2.682	0.0136	673.12	-672.74	-4.69	-22.11	1485400.0	227340.0	9134.8	
1.855	0.0158	675.08	-674.13	-13.15	-33.24	1485400.0	227340.0	9138.6	
2.397	0.0158	689.72	-689.33	-18.7	-13.7	1485400.0	227340.0	9142.4	
2.566	0.0097	666.14	-664.45	39.04	-26.87	1485400.0	227330.0	9146.2	
1.964	0.0196	693.54	-691.57	-18.65	-48.71	1485400.0	227330.0	9150.0	
2.947	0.0111	710.26	-709.13	30.45	26.13	1485400.0	227330.0	9153.8	
2.92	0.0099	688.83	-688.71	11.2	5.62	1485400.0	227330.0	9157.6	
2.436	0.0146	714.44	-712.5	-32.77	-41.27	1485400.0	227330.0	9161.4	
2.554	0.0166	709.46	-706.59	54.85	32.53	1485400.0	227320.0	9165.2	
2.919	0.0103	685.36	-682.65	-22.31	-56.7	1485400.0	227320.0	9169.0	
2.538	0.0187	695.01	-692.39	-25.23	-54.75	1485500.0	227320.0	9172.8	
2.724	0.0085	691.85	-690.12	-15.01	-46.57	1485500.0	227320.0	9176.6	
2.893	0.0076	684.67	-684.62	2.5	-7.89	1485500.0	227320.0	9180.4	
2.476	0.011	685.91	-684.27	-19.66	-43.15	1485500.0	227320.0	9184.2	
2.408	0.017	687.5	-685.19	-24.98	-50.54	1485500.0	227310.0	9188.0	
2.548	0.0113	691.63	-688.79	-21.46	-58.84	1485500.0	227310.0	9191.8	
2.844	0.0108	714.47	-709.11	-32.75	-80.94	1485500.0	227310.0	9195.6	
2.411	0.0133	754.69	-750.4	-26.48	-75.82	1485500.0	227310.0	9199.4	
2.411	0.0133	754.69	-750.4	-26.48	-75.82	1485500.0	227310.0	9203.2	
2.264	0.0126	716.48	-713.47	-20.97	-62.16	1485500.0	227300.0	9207.0	
3.166	0.0099	712.41	-711.9	25.86	7.93	1485500.0	227300.0	9210.8	
2.325	0.0121	735.08	-733.12	49.4	21.09	1485500.0	227300.0	9214.6	
2.425	0.0089	767.37	-764.71	61.69	16.67	1485500.0	227300.0	9218.4	
2.449	0.0138	760.12	-755.81	79.05	17.02	1485500.0	227300.0	9222.2	
2.552	0.0088	751.73	-744.36	104.86	-5.7	1485500.0	227300.0	9226.0	
2.893	0.0106	745.12	-735.87	115.21	-20.79	1485500.0	227290.0	9229.8	
2.935	0.0105	751.19	-740.06	127.24	-20.28	1485500.0	227290.0	9233.6	
2.116	0.0149	720.23	-715.81	79.03	9.87	1485500.0	227290.0	9237.4	
2.085	0.0114	701.85	-698.25	69.22	-15.95	1485500.0	227290.0	9241.2	
2.599	0.0182	684.86	-683.16	37.71	-30.16	1485500.0	227290.0	9245.0	
2.595	0.0116	693.07	-691.11	49.92	-14.76	1485500.0	227280.0	9248.8	
2.753	0.0085	681.38	-680.58	25.72	-20.89	1485500.0	227280.0	9252.6	
2.679	0.0124	682.04	-681.53	18.92	-18.36	1485500.0	227280.0	9256.4	
2.599	0.0071	690.01	-689.19	33.2	-5.97	1485500.0	227280.0	9260.1	
2.559	0.0129	701.45	-699.71	48.61	-9.0	1485500.0	227280.0	9263.9	
2.384	0.0134	734.69	-732.91	-29.34	-41.8	1485500.0	227270.0	9267.7	
2.278	0.0109	757.4	-755.2	-29.4	-49.74	1485500.0	227270.0	9271.5	
2.403	0.0119	757.35	-756.43	-24.35	-28.28	1485500.0	227270.0	9275.3	
2.237	0.0109	777.49	-776.71	-18.81	-29.41	1485500.0	227270.0	9279.1	
2.394	0.0127	750.69	-750.22	-23.16	-12.76	1485500.0	227270.0	9282.9	
2.392	0.0113	747.16	-746.67	-23.21	-13.75	1485500.0	227270.0	9286.7	
2.44	0.01	746.8	-745.25	-29.83	-37.78	1485500.0	227260.0	9290.5	
2.308	0.0137	755.13	-753.53	-31.18	-37.97	1485500.0	227260.0	9294.3	
2.311	0.0116	731.99	-731.54	-24.26	-8.37	1485500.0	227260.0	9298.1	
2.557	0.0095	765.69	-762.61	-31.42	-61.09	1485500.0	227260.0	9301.9	
2.926	0.0128	695.7	-695.6	-3.79	-11.58	1485500.0	227260.0	9305.7	
2.407	0.012333333333333333	699.35	-698.23	-16.89	-35.76	1485500.0	227250.0	9309.5	
2.447	0.011866666666666668	694.865	-693.9549999999999	-1.8599999999999994	-31.93	1485600.0	227250.0	9313.3	
2.487	0.0114	690.38	-689.68	13.170000000000002	-28.1	1485600.0	227250.0	9317.1	
2.487	0.0114	690.38	-689.68	13.17	-28.1	1485600.0	227250.0	9320.9	
2.664	0.0087	700.1	-699.71	0.4	-23.44	1485600.0	227250.0	9324.7	
2.415	0.0132	727.52	-727.0	-21.68	-16.9	1485600.0	227250.0	9328.5	
1.947	0.0169	732.28	-729.5	-37.39	-51.7	1485600.0	227240.0	9332.3	
2.917	0.0113	715.61	-715.42	-11.66	-11.56	1485600.0	227240.0	9336.1	
2.445	0.0113	703.61	-702.94	29.9	7.07	1485600.0	227240.0	9339.9	
3.078	0.0086	713.16	-712.14	37.28	-7.93	1485600.0	227240.0	9343.7	
2.455	0.0091	722.79	-722.35	22.88	10.16	1485600.0	227240.0	9347.5	
2.683	0.0114	732.78	-731.4	42.18	15.44	1485600.0	227230.0	9351.3	
2.441	0.0096	737.92	-734.99	65.22	7.63	1485600.0	227230.0	9355.1	
2.692	0.0097	736.38	-730.47	93.05	-2.77	1485600.0	227230.0	9358.9	
2.578	0.0121	730.99	-724.77	95.09	-3.46	1485600.0	227230.0	9362.7	
2.592	0.0108	729.89	-723.91	92.67	-10.7	1485600.0	227230.0	9366.5	
2.501	0.0105	715.77	-712.3	70.34	-3.23	1485600.0	227230.0	9370.3	
2.697	0.0106	710.61	-709.53	38.45	7.33	1485600.0	227220.0	9374.1	
2.421	0.0098	729.21	-721.72	95.96	-40.66	1485600.0	227220.0	9377.9	
2.678	0.0101	717.11	-709.99	91.11	-43.21	1485600.0	227220.0	9381.7	
2.982	0.0142	714.94	-709.39	84.09	-28.83	1485600.0	227220.0	9385.5	
2.699	0.0133	724.77	-717.05	95.11	-45.69	1485600.0	227220.0	9389.3	
2.88	0.009	731.39	-723.02	98.9	-48.99	1485600.0	227210.0	9393.1	
2.322	0.0098	740.35	-732.6	105.93	-13.96	1485600.0	227210.0	9396.9	
2.533	0.0114	729.41	-721.29	104.48	-29.41	1485600.0	227210.0	9400.7	
2.938	0.0092	741.94	-733.95	105.04	-27.67	1485600.0	227210.0	9404.5	
2.977	0.0082	741.88	-737.33	80.04	-17.97	1485600.0	227210.0	9408.3	
2.262	0.0081	720.51	-717.47	61.03	-25.46	1485600.0	227210.0	9412.1	
2.404	0.0134	723.78	-721.23	-41.81	-44.01	1485600.0	227200.0	9415.9	
2.567	0.0114	714.87	-712.67	-17.19	-53.31	1485600.0	227200.0	9419.7	
2.497	0.0092	700.12	-699.63	-7.47	-25.1	1485600.0	227200.0	9423.5	
2.66	0.0091	701.01	-700.61	1.69	-23.52	1485600.0	227200.0	9427.2	
2.244	0.0113	703.35	-701.85	-11.17	-44.47	1485600.0	227200.0	9431.0	
2.252	0.0117	703.36	-702.72	-1.4800000000000004	-30.03	1485600.0	227190.0	9434.8	
2.252	0.0117	703.36	-702.72	-1.48	-30.03	1485600.0	227190.0	9438.6	
2.62	0.0097	698.62	-697.43	-6.79	-40.18	1485600.0	227190.0	9442.4	
2.703	0.0097	693.4	-692.47	-0.66	-36.02	1485600.0	227190.0	9446.2	
2.256	0.0116	713.22	-711.68	-14.28	-44.69	1485600.0	227190.0	9450.0	
2.423	0.0107	722.43	-721.02	-18.42	-41.25	1485700.0	227180.0	9453.8	
2.448	0.0096	705.46	-703.2	1.08	-56.46	1485700.0	227180.0	9457.6	
2.444	0.0153	705.73	-699.89	28.47	-85.99	1485700.0	227180.0	9461.4	
2.244	0.0101	706.84	-700.74	25.56	-89.03	1485700.0	227180.0	9465.2	
2.429	0.0122	708.5	-704.25	3.78	-77.31	1485700.0	227180.0	9469.0	
2.19	0.0149	694.91	-690.52	44.53	-64.03	1485700.0	227180.0	9472.8	
2.55	0.0126	690.24	-687.1	19.52	-62.76	1485700.0	227170.0	9476.6	
2.353	0.0141	690.31	-686.07	53.86	-54.25	1485700.0	227170.0	9480.4	
2.798	0.0136	699.04	-693.82	76.44	-37.95	1485700.0	227170.0	9484.2	
2.561	0.013233333333333333	697.86	-695.3	58.55	-11.89	1485700.0	227170.0	9488.0	
2.561	0.012866666666666667	697.86	-695.3	58.55	-11.89	1485700.0	227170.0	9491.8	
2.289	0.0125	692.35	-692.06	-1.28	-19.98	1485700.0	227160.0	9495.6	
2.599	0.0125	708.42	-708.1	21.07	3.59	1485700.0	227160.0	9499.4	
2.811	0.0076	700.17	-700.02	9.46	-10.96	1485700.0	227160.0	9503.2	
2.206	0.0076	727.89	-716.98	72.96	-102.15	1485700.0	227160.0	9507.0	
2.093	0.0159	696.47	-690.58	56.96	-70.19	1485700.0	227160.0	9510.8	
2.613	0.0089	686.88	-684.51	16.65	-54.44	1485700.0	227160.0	9514.6	
2.526	0.0122	693.83	-692.15	-3.74	-48.12	1485700.0	227150.0	9518.4	
2.393	0.0124	742.58	-729.87	84.53	-107.57	1485700.0	227150.0	9522.2	
2.153	0.0106	721.45	-711.93	69.28	-94.03	1485700.0	227150.0	9526.0	
2.626	0.0081	754.36	-740.91	111.57	-87.57	1485700.0	227150.0	9529.8	
2.224	0.0105	710.63	-702.45	73.0	-78.94	1485700.0	227150.0	9533.6	
2.503	0.0096	699.71	-698.87	5.25	-33.85	1485700.0	227140.0	9537.4	
2.49	0.0123	710.85	-710.83	1.5	-4.65	1485700.0	227140.0	9541.2	
2.235	0.0118	725.34	-725.31	-3.99	-5.61	1485700.0	227140.0	9545.0	
1.959	0.012	716.835	-716.7349999999999	-1.685	-10.559999999999999	1485700.0	227140.0	9548.8	
2.518	0.0107	708.33	-708.16	0.6200000000000001	-15.509999999999998	1485700.0	227140.0	9552.6	
2.518	0.0107	708.33	-708.16	0.62	-15.51	1485700.0	227140.0	9556.4	
2.234	0.0096	700.7	-699.69	-8.04	-36.69	1485700.0	227130.0	9560.2	
2.692	0.0087	701.44	-701.36	-0.71	-10.62	1485700.0	227130.0	9564.0	
2.352	0.009	717.52	-717.47	-6.2	-5.96	1485700.0	227130.0	9567.8	
2.081	0.0106	730.64	-730.5	-9.72	-10.63	1485700.0	227130.0	9571.6	
2.22	0.0115	708.87	-708.8	0.03	-10.17	1485700.0	227130.0	9575.4	
2.595	0.009	740.7	-740.68	2.82	4.71	1485700.0	227120.0	9579.2	
2.519	0.0094	728.84	-728.6	7.42	17.37	1485700.0	227120.0	9583.0	
2.613	0.009049999999999999	733.46	-733.13	17.38	13.86	1485700.0	227120.0	9586.8	
2.512	0.0087	708.67	-708.63	4.42	-6.07	1485700.0	227120.0	9590.6	
2.671	0.0087	742.88	-741.5	33.91	29.91	1485800.0	227120.0	9594.4	
2.246	0.0113	713.35	-712.09	-7.590000000000003	-41.7	1485800.0	227120.0	9598.1	
2.246	0.0113	713.35	-712.09	-7.59	-41.7	1485800.0	227110.0	9601.9	
2.977	0.0087	772.62	-768.16	81.47	14.93	1485800.0	227110.0	9605.7	
2.26	0.0133	720.44	-720.08	-11.45	-19.88	1485800.0	227110.0	9609.5	
2.593	0.0115	720.9	-720.88	-3.87	2.63	1485800.0	227110.0	9613.3	
2.682	0.0126	708.04	-707.71	21.18	3.89	1485800.0	227110.0	9617.1	
2.576	0.0093	711.54	-711.5	5.23	-5.32	1485800.0	227100.0	9620.9	
2.282	0.0102	721.29	-720.94	-9.63	-20.26	1485800.0	227100.0	9624.7	
2.556	0.0096	695.65	-694.74	34.0	-10.56	1485800.0	227100.0	9628.5	
2.706	0.0065	782.71	-773.3	120.43	-11.93	1485800.0	227100.0	9632.3	
2.511	0.0136	757.01	-748.14	115.36	-5.89	1485800.0	227100.0	9636.1	
2.322	0.0114	724.08	-715.5	109.88	-16.42	1485800.0	227090.0	9639.9	
2.476	0.0105	738.5	-727.85	115.89	-46.72	1485800.0	227090.0	9643.7	
2.626	0.0112	738.5	-727.85	115.89	-46.72	1485800.0	227090.0	9647.5	
2.376	0.0104	772.08	-760.17	127.84	-43.66	1485800.0	227090.0	9651.3	
2.848	0.0081	769.55	-756.44	135.97	-38.97	1485800.0	227090.0	9655.1	
2.093	0.0116	746.39	-736.21	120.36	-24.5	1485800.0	227090.0	9658.9	
2.64	0.0088	756.31	-743.96	128.31	-45.33	1485800.0	227080.0	9662.7	
2.535	0.0087	763.99	-752.69	119.58	-53.17	1485800.0	227080.0	9666.5	
2.728	0.0056	767.97	-755.65	120.44	-65.4	1485800.0	227080.0	9670.3	
2.728	0.0056	767.97	-755.65	120.44	-65.4	1485800.0	227080.0	9674.1	
2.899	0.0081	714.82	-714.7	11.83	-6.18	1485800.0	227080.0	9677.9	
2.679	0.0089	735.32	-735.23	8.25	7.73	1485800.0	227070.0	9681.7	
2.408	0.0086	703.6	-703.54	8.3	2.7	1485800.0	227070.0	9685.5	
2.436	0.0104	689.67	-689.06	26.59	-11.62	1485800.0	227070.0	9689.3	
2.291	0.0089	683.39	-681.69	39.58	-27.5	1485800.0	227070.0	9693.1	
2.364	0.0102	709.91	-709.27	27.26	12.86	1485800.0	227070.0	9696.9	
2.352	0.009899999999999999	687.49	-686.06	42.72	-11.81	1485800.0	227070.0	9700.7	
2.356	0.0096	686.94	-686.32	28.16	-7.02	1485800.0	227060.0	9704.5	
2.31	0.0096	699.44	-697.94	44.05	12.71	1485800.0	227060.0	9708.3	
2.035	0.0088	701.73	-698.88	63.14	-0.32	1485800.0	227060.0	9712.1	
2.099	0.0098	693.31	-689.86	68.73	-7.25	1485800.0	227060.0	9715.9	
2.294	0.0104	700.67	-693.87	90.71	-35.38	1485800.0	227060.0	9719.7	
1.982	0.0138	703.99	-695.87	82.62	-67.39	1485800.0	227050.0	9723.5	
2.169	0.0113	704.71	-696.33	91.46	-58.17	1485800.0	227050.0	9727.3	
2.191	0.0128	727.78	-716.39	105.59	-72.79	1485800.0	227050.0	9731.1	
1.982	0.007	710.07	-701.14	78.98	-79.76	1485900.0	227050.0	9734.9	
2.83	0.007	795.61	-783.04	119.83	-73.98	1485900.0	227050.0	9738.7	
2.651	0.0055	757.11	-743.94	119.49	-74.1	1485900.0	227050.0	9742.5	
2.375	0.0093	753.09	-740.85	119.4	-63.46	1485900.0	227040.0	9746.3	
2.199	0.0107	737.81	-726.12	120.48	-51.05	1485900.0	227040.0	9750.1	
2.307	0.0154	701.43	-695.54	89.87	-12.16	1485900.0	227040.0	9753.9	
2.312	0.0125	701.84	-695.39	89.0	-33.09	1485900.0	227040.0	9757.7	
2.353	0.0146	699.6	-691.79	73.91	-73.49	1485900.0	227040.0	9761.5	
2.517	0.0121	716.04	-706.48	76.77	-87.72	1485900.0	227030.0	9765.2	
2.081	0.0166	710.02	-701.42	74.89	-80.8	1485900.0	227030.0	9769.0	
2.12	0.0122	707.31	-700.32	52.98	-83.88	1485900.0	227030.0	9772.8	
2.385	0.0073	699.39	-694.77	33.53	-72.94	1485900.0	227030.0	9776.6	
2.42	0.0102	693.08	-691.93	16.66	-36.34	1485900.0	227030.0	9780.4	
2.166	0.0095	692.64	-687.93	48.94	-64.14	1485900.0	227030.0	9784.2	
2.042	0.0118	725.02	-716.14	63.2	-93.79	1485900.0	227020.0	9788.0	
2.042	0.0118	725.02	-716.14	63.2	-93.79	1485900.0	227020.0	9791.8	
1.906	0.0151	711.19	-704.18	38.76	-91.79	1485900.0	227020.0	9795.6	
2.711	0.0089	734.24	-723.86	83.97	-89.9	1485900.0	227020.0	9799.4	
1.814	0.0147	703.5	-698.35	44.4	-72.45	1485900.0	227020.0	9803.2	
2.1	0.0103	702.63	-697.73	19.89	-80.4	1485900.0	227010.0	9807.0	
2.335	0.0116	707.04	-705.06	-6.33	-52.58	1485900.0	227010.0	9810.8	
2.209	0.0121	736.13	-730.15	8.16	-93.29	1485900.0	227010.0	9814.6	
2.053	0.0109	739.26	-730.3	40.77	-107.26	1485900.0	227010.0	9818.4	
2.826	0.008	781.77	-770.34	39.53	-127.17	1485900.0	227010.0	9822.2	
2.101	0.01	758.93	-747.38	56.57	-119.16	1485900.0	227000.0	9826.0	
2.53	0.0087	757.34	-747.83	42.99	-111.63	1485900.0	227000.0	9829.8	
2.314	0.0089	768.04	-759.11	27.84	-113.41	1485900.0	227000.0	9833.6	
1.995	0.0122	737.64	-733.03	-7.2	-82.02	1485900.0	227000.0	9837.4	
2.11	0.0093	746.49	-740.1	2.33	-97.39	1485900.0	227000.0	9841.2	
2.305	0.0086	749.18	-742.62	-0.19	-98.98	1485900.0	227000.0	9845.0	
2.358	0.0081	741.77	-736.85	-14.5	-84.04	1485900.0	226990.0	9848.8	
2.61	0.0076	752.17	-747.17	-22.34	-83.69	1485900.0	226990.0	9852.6	
2.216	0.0106	725.04	-720.53	-14.54	-79.46	1485900.0	226990.0	9856.4	
2.274	0.0088	733.92	-731.23	-13.5	-61.28	1485900.0	226990.0	9860.2	
2.221	0.011	731.26	-726.37	19.6	-82.13	1485900.0	226990.0	9864.0	
2.006	0.0078	728.32	-719.01	58.39	-100.3	1485900.0	226980.0	9867.8	
2.583	0.009	733.14	-728.52	6.34	-81.93	1485900.0	226980.0	9871.6	
2.084	0.009	736.79	-729.78	15.77	-100.11	1486000.0	226980.0	9875.4	
2.002	0.0106	765.54	-756.65	6.19	-116.2	1486000.0	226980.0	9879.2	
2.293	0.0109	731.79	-723.08	62.31	-93.77	1486000.0	226980.0	9883.0	
2.196	0.0123	745.93	-740.19	-3.89	-92.29	1486000.0	226980.0	9886.8	
2.189	0.0077	721.05	-717.61	18.21	-67.94	1486000.0	226970.0	9890.6	
2.313	0.0099	739.15	-737.02	-18.47	-52.89	1486000.0	226970.0	9894.4	
2.433	0.0111	722.97	-720.4	-9.21	-60.17	1486000.0	226970.0	9898.2	
2.227	0.0105	742.69	-741.5	-28.44	-31.13	1486000.0	226970.0	9902.0	
2.417	0.0107	699.14	-699.0	12.52	-6.109999999999999	1486000.0	226970.0	9905.8	
2.417	0.0107	699.14	-699.0	12.52	-6.11	1486000.0	226960.0	9909.6	
2.109	0.0071	711.12	-710.95	-12.65	-9.14	1486000.0	226960.0	9913.4	
2.453	0.0071	721.99	-721.87	-9.38	9.25	1486000.0	226960.0	9917.2	
2.038	0.0094	735.05	-734.09	-26.57	-26.75	1486000.0	226960.0	9921.0	
1.978	0.0104	739.66	-738.79	-25.56	-25.17	1486000.0	226960.0	9924.8	
2.46	0.0089	752.14	-752.01	-2.14	14.08	1486000.0	226960.0	9928.6	
2.324	0.0113	762.83	-761.98	10.99	34.14	1486000.0	226950.0	9932.4	
2.473	0.0084	757.7	-757.04	12.02	29.45	1486000.0	226950.0	9936.1	
2.703	0.0065	767.5	-766.84	12.2	29.44	1486000.0	226950.0	9939.9	
2.331	0.0081	764.44	-764.08	-2.14	23.49	1486000.0	226950.0	9943.7	
2.364	0.0083	768.07	-766.48	31.55	37.95	1486000.0	226950.0	9947.5	
2.306	0.0086	765.88	-764.29	33.17	36.41	1486000.0	226940.0	9951.3	
1.837	0.0089	744.31	-743.99	-8.21	-20.14	1486000.0	226940.0	9955.1	
2.442	0.0086	755.24	-752.22	53.12	41.53	1486000.0	226940.0	9958.9	
2.493	0.0075	766.63	-764.66	36.34	41.18	1486000.0	226940.0	9962.7	
2.161	0.0117	760.67	-760.24	15.38	20.76	1486000.0	226940.0	9966.5	
2.695	0.0081	784.89	-783.29	37.37	33.54	1486000.0	226940.0	9970.3	
2.388	0.011	750.02	-749.04	18.7	33.38	1486000.0	226930.0	9974.1	
2.245	0.0083	768.43	-766.87	36.41	32.74	1486000.0	226930.0	9977.9	
1.991	0.0102	757.12	-751.52	88.59	24.24	1486000.0	226930.0	9981.7	
2.145	0.0109	748.81	-743.34	85.88	28.04	1486000.0	226930.0	9985.5	
2.298	0.0098	741.75	-741.49	-17.1	-9.69	1486000.0	226930.0	9989.3	
2.516	0.0066	768.59	-767.98	17.48	25.23	1486000.0	226920.0	9993.1	
2.184	0.0111	747.93	-747.88	-8.7	1.31	1486000.0	226920.0	9996.9	
1.957	0.0107	767.58	-767.48	-12.37	-3.34	1486000.0	226920.0	10001.0	
2.071	0.0107	778.66	-776.75	-22.84	-49.51	1486000.0	226920.0	10005.0	
2.522	0.0072	790.56	-788.37	46.22	36.3	1486000.0	226920.0	10008.0	
2.142	0.0097	772.73	-772.23	14.01	24.24	1486000.0	226910.0	10012.0	
2.145	0.0113	734.67	-733.63	-7.76	-38.23	1486100.0	226910.0	10016.0	
2.341	0.0082	738.55	-737.63	-11.52	-35.14	1486100.0	226910.0	10020.0	
2.341	0.0082	732.72	-730.5	-9.57	-56.23	1486100.0	226910.0	10023.0	
2.341	0.0082	732.72	-730.5	-9.57	-56.23	1486100.0	226910.0	10027.0	
1.995	0.0119	745.49	-740.37	2.15	-87.25	1486100.0	226910.0	10031.0	
2.196	0.0126	751.81	-746.68	10.14	-87.09	1486100.0	226900.0	10035.0	
2.256	0.0102	762.8	-755.58	29.42	-100.48	1486100.0	226900.0	10039.0	
2.44	0.0075	766.88	-760.39	18.27	-97.83	1486100.0	226900.0	10042.0	
2.169	0.0106	762.0	-756.15	31.21	-88.95	1486100.0	226900.0	10046.0	
2.203	0.0081	759.77	-754.54	15.76	-87.58	1486100.0	226900.0	10050.0	
2.134	0.0103	769.86	-763.54	26.09	-94.94	1486100.0	226890.0	10054.0	
2.14	0.0101	756.3	-750.46	28.09	-89.47	1486100.0	226890.0	10058.0	
2.38	0.0085	794.67	-794.65	-3.8200000000000003	-2.269999999999996	1486100.0	226890.0	10061.0	
2.38	0.0085	794.67	-794.65	-3.82	-2.27	1486100.0	226890.0	10065.0	
2.26	0.0085	783.9	-783.79	-12.49	1.88	1486100.0	226890.0	10069.0	
2.287	0.0091	794.41	-794.38	-7.52	-0.95	1486100.0	226890.0	10073.0	
2.178	0.0084	789.25	-789.19	-7.65	6.12	1486100.0	226880.0	10077.0	
2.379	0.0098	779.51	-779.42	-11.77	-1.5	1486100.0	226880.0	10080.0	
2.552	0.0088	781.31	-781.21	-6.29	10.86	1486100.0	226880.0	10084.0	
2.096	0.0088	778.87	-778.67	-16.81	5.51	1486100.0	226880.0	10088.0	
1.924	0.009	775.9	-775.78	-11.86	6.44	1486100.0	226880.0	10092.0	
2.239	0.0103	742.21	-742.12	-9.37	-6.95	1486100.0	226870.0	10096.0	
2.239	0.0103	742.21	-742.12	-9.37	-6.95	1486100.0	226870.0	10099.0	
2.527	0.0088	727.78	-727.26	-5.41	-26.86	1486100.0	226870.0	10103.0	
2.193	0.009	736.81	-736.7	-7.99	-9.27	1486100.0	226870.0	10107.0	
2.486	0.0085	734.95	-734.93	-3.19	4.44	1486100.0	226870.0	10111.0	
2.428	0.0103	731.48	-731.46	2.42	4.47	1486100.0	226870.0	10115.0	
2.207	0.0094	715.51	-714.65	6.3	-34.48	1486100.0	226860.0	10118.0	
2.465	0.0094	714.46	-713.04	10.92	-43.55	1486100.0	226860.0	10122.0	
2.616	0.0081	741.07	-741.0	-0.68	-10.2	1486100.0	226860.0	10126.0	
2.652	0.0089	773.32	-772.66	8.93	30.63	1486100.0	226860.0	10130.0	
2.591	0.0102	770.94	-770.52	10.76	22.84	1486100.0	226860.0	10134.0	
2.547	0.0084	774.09	-773.49	7.01	29.65	1486100.0	226850.0	10137.0	
2.382	0.0098	756.19	-755.65	19.49	21.04	1486100.0	226850.0	10141.0	
2.382	0.0098	756.19	-755.65	19.49	21.04	1486100.0	226850.0	10145.0	
2.581	0.0071	766.42	-765.69	15.73	29.51	1486100.0	226850.0	10149.0	
2.979	0.0063	773.09	-771.83	34.95	26.87	1486100.0	226850.0	10153.0	
2.329	0.009	749.31	-748.31	28.8	25.97	1486200.0	226850.0	10156.0	
2.233	0.0086	729.27	-726.87	-1.13	-59.12	1486200.0	226840.0	10160.0	
2.452	0.0078	783.3	-779.06	73.48	34.94	1486200.0	226840.0	10164.0	
2.105	0.0075	743.01	-741.33	-4.12	-49.77	1486200.0	226840.0	10168.0	
2.538	0.0091	762.63	-761.29	27.89	35.44	1486200.0	226840.0	10172.0	
2.499	0.0065	772.58	-770.98	34.78	35.55	1486200.0	226840.0	10175.0	
2.364	0.0095	772.2	-770.12	39.17	40.94	1486200.0	226830.0	10179.0	
2.588	0.0102	763.45	-761.28	42.01	39.19	1486200.0	226830.0	10183.0	
2.337	0.0093	753.63	-753.1	8.199999999999996	27.14	1486200.0	226830.0	10187.0	
2.337	0.0093	753.63	-753.1	8.2	27.14	1486200.0	226830.0	10191.0	
2.292	0.0085	772.61	-771.86	17.71	29.25	1486200.0	226830.0	10194.0	
1.944	0.0127	782.25	-782.13	3.89	13.38	1486200.0	226830.0	10198.0	
2.132	0.0123	770.07	-769.93	-5.03	13.96	1486200.0	226820.0	10202.0	
2.704	0.0083	750.6	-745.34	12.99	-87.72	1486200.0	226820.0	10206.0	
2.428	0.01	751.27	-743.83	10.87	-104.9	1486200.0	226820.0	10210.0	
2.233	0.0099	751.27	-743.83	10.87	-104.9	1486200.0	226820.0	10213.0	
1.816	0.0127	721.08	-716.5	31.81	-74.66	1486200.0	226820.0	10217.0	
2.985	0.0076	743.67	-740.42	-8.25	-69.03	1486200.0	226810.0	10221.0	
2.585	0.0099	717.45	-716.11	-5.35	-43.51	1486200.0	226810.0	10225.0	
2.365	0.0104	739.39	-736.07	-12.48	-68.88	1486200.0	226810.0	10229.0	
2.152	0.0097	740.56	-738.7	-18.61	-49.02	1486200.0	226810.0	10232.0	
2.02	0.0118	736.15	-734.76	-7.97	-44.45	1486200.0	226810.0	10236.0	
2.504	0.0143	744.63	-743.67	31.56	20.82	1486200.0	226800.0	10240.0	
2.299	0.0113	746.91	-746.34	17.07	23.49	1486200.0	226800.0	10244.0	
2.33	0.0103	748.34	-748.12	6.24	16.83	1486200.0	226800.0	10248.0	
2.261	0.0106	736.44	-736.3	-6.29	-13.14	1486200.0	226800.0	10251.0	
2.505	0.0102	723.3	-723.22	9.84	3.27	1486200.0	226800.0	10255.0	
2.12	0.0098	728.3	-727.02	-5.32	-42.81	1486200.0	226800.0	10259.0	
2.12	0.0098	728.3	-727.02	-5.32	-42.81	1486200.0	226790.0	10263.0	
2.293	0.0118	742.32	-741.37	17.08	33.26	1486200.0	226790.0	10267.0	
2.442	0.0094	766.84	-766.46	6.41	23.0	1486200.0	226790.0	10270.0	
2.217	0.0108	752.46	-752.22	-14.99	-11.72	1486200.0	226790.0	10274.0	
2.07	0.0103	747.34	-742.25	2.49	-86.96	1486200.0	226790.0	10278.0	
2.097	0.0105	745.73	-740.34	17.44	-87.81	1486200.0	226780.0	10282.0	
2.145	0.0116	733.02	-729.69	0.65	-69.76	1486200.0	226780.0	10286.0	
2.134	0.0103	738.01	-734.99	-16.51	-64.62	1486200.0	226780.0	10289.0	
2.233	0.0099	740.96	-739.89	-14.2	-37.29	1486200.0	226780.0	10293.0	
2.384	0.0099	748.29	-744.47	-16.71	-73.63	1486300.0	226780.0	10297.0	
1.961	0.0135	745.03	-742.29	-20.86	-60.3	1486300.0	226780.0	10301.0	
2.174	0.01	754.69	-751.87	-18.94	-62.32	1486300.0	226770.0	10305.0	
2.007	0.0122	741.19	-737.91	-15.9	-67.77	1486300.0	226770.0	10308.0	
1.926	0.0105	764.26	-760.91	-24.56	-67.2	1486300.0	226770.0	10312.0	
1.691	0.018	761.16	-757.48	-18.94	-72.38	1486300.0	226770.0	10316.0	
2.456	0.0106	717.68	-717.56	1.78	-13.16	1486300.0	226770.0	10320.0	
2.199	0.0145	716.84	-716.47	3.73	-22.79	1486300.0	226760.0	10324.0	
2.254	0.0115	716.75	-715.51	-4.98	-41.88	1486300.0	226760.0	10327.0	
2.18	0.0113	755.97	-753.48	-18.31	-58.56	1486300.0	226760.0	10331.0	
1.987	0.0167	750.73	-749.96	-18.43	-28.55	1486300.0	226760.0	10335.0	
2.173	0.0117	730.77	-730.69	1.96	-10.76	1486300.0	226760.0	10339.0	
2.492	0.0102	725.13	-725.08	-5.69	-6.06	1486300.0	226760.0	10343.0	
2.462	0.0107	718.38	-718.28	5.11	-11.3	1486300.0	226750.0	10346.0	
2.43	0.0114	723.61	-723.47	12.66	6.4	1486300.0	226750.0	10350.0	
2.414	0.0085	729.09	-728.4	24.91	19.65	1486300.0	226750.0	10354.0	
2.22	0.0123	733.56	-732.65	25.22	26.33	1486300.0	226750.0	10358.0	
2.152	0.0116	777.5	-777.48	-2.34	4.82	1486300.0	226750.0	10361.0	
2.184	0.0136	755.14	-754.72	-22.39	-11.72	1486300.0	226740.0	10365.0	
2.355	0.0099	784.71	-784.7	-2.36	1.3	1486300.0	226740.0	10369.0	
2.327	0.0106	778.435	-778.2	6.395000000000001	11.65	1486300.0	226740.0	10373.0	
2.299	0.0113	772.16	-771.7	15.150000000000002	22.0	1486300.0	226740.0	10377.0	
2.299	0.0113	772.16	-771.7	15.15	22.0	1486300.0	226740.0	10380.0	
2.108	0.0135	750.21	-749.99	-15.31	-9.86	1486300.0	226740.0	10384.0	
1.869	0.0135	752.29	-750.74	-30.07	-37.84	1486300.0	226730.0	10388.0	
2.018	0.01	749.62	-747.22	-27.24	-53.41	1486300.0	226730.0	10392.0	
1.981	0.0081	751.3	-748.58	-21.05	-60.3	1486300.0	226730.0	10396.0	
2.558	0.0105	760.34	-750.04	-16.76	-52.37	1486300.0	226730.0	10399.0	
2.009	0.0146	752.05	-750.04	-16.76	-52.37	1486300.0	226730.0	10403.0	
2.012	0.0102	758.67	-757.09	-26.26	-41.3	1486300.0	226720.0	10407.0	
1.928	0.0121	757.78	-756.73	-24.07	-31.78	1486300.0	226720.0	10411.0	
2.095	0.0105	782.79	-781.38	-28.54	-37.35	1486300.0	226720.0	10415.0	
1.84	0.0134	761.93	-760.2	-26.03	-44.29	1486300.0	226720.0	10418.0	
1.71	0.0134	744.22	-742.66	-18.52	-44.38	1486300.0	226720.0	10422.0	
2.011	0.0111	758.12	-756.25	-27.0	-45.85	1486300.0	226710.0	10426.0	
2.186	0.0113	775.59	-773.4	-28.43	-50.72	1486300.0	226710.0	10430.0	
2.18	0.0103	787.67	-784.6	-15.54	-67.73	1486400.0	226710.0	10434.0	
2.18	0.0103	787.67	-784.6	-15.54	-67.73	1486400.0	226710.0	10437.0	
1.907	0.0098	750.38	-748.83	-28.22	-39.12	1486400.0	226710.0	10441.0	
