// S/C Mass Properties used for g1 segment with t0 = 1141676789
// SC mass (kg)
 424
// SC center of mass in mechanical frame (x,y,z) in meters
0.000789	0.00276	0.491
// SC moment of inertia in body frame in kg-m^2
 122	  -1	-3.15
  -1	 121	-2.44
-3.15	-2.44	 202
// SC moment of inertia in H1 frame in kg-m^2
 225	-0.782	-6.58
-0.782	 239	-2.97
-6.58	-2.97	 217
// SC moment of inertia in H2 frame in kg-m^2
 225	-1.22	-0.0172
-1.22	 240	-2.97
-0.017	-2.97	 217
