1143000951.969475
1143000956.970696
1143000961.971917
1143000966.9731379
1143000971.974359
1143000976.97558
1143000981.976801
1143000986.9780219
1143000991.979243
1143000996.980464
1143001001.981685
1143001006.9829059
1143001011.984127
1143001016.985348
1143001021.986569
1143001026.9877899
1143001031.989011
1143001036.990232
1143001041.991453
1143001046.9926739
1143001051.993895
1143001056.995116
1143001061.996337
1143001066.9975579
1143001071.998779
1143122517.0
1143122522.001221
1143122527.0024421
1143122532.003663
1143122537.004884
1143122542.006105
1143122547.0073261
1143122552.008547
1143122557.009768
1143122562.010989
1143122567.0122101
1143122572.013431
1143122577.014652
1143122582.015873
1143122587.0170941
1143122592.018315
1143122597.019536
1143122602.020757
1143122607.0219781
1143122612.023199
1143122617.02442
1143122622.025641
1143122627.0268621
1143122632.028083
1143122637.029304
