1146480999.969475
1146481004.970696
1146481009.971917
1146481014.9731379
1146481019.974359
1146481024.97558
1146481029.976801
1146481034.9780219
1146481039.979243
1146481044.980464
1146481049.981685
1146481054.9829059
1146481059.984127
1146481064.985348
1146481069.986569
1146481074.9877899
1146481079.989011
1146481084.990232
1146481089.991453
1146481094.9926739
1146481099.993895
1146481104.995116
1146481109.996337
1146481114.9975579
1146481119.998779
1147129017.0
1147129022.001221
1147129027.0024421
1147129032.003663
1147129037.004884
1147129042.006105
1147129047.0073261
1147129052.008547
1147129057.009768
1147129062.010989
1147129067.0122101
1147129072.013431
1147129077.014652
1147129082.015873
1147129087.0170941
1147129092.018315
1147129097.019536
1147129102.020757
1147129107.0219781
1147129112.023199
1147129117.02442
1147129122.025641
1147129127.0268621
1147129132.028083
1147129137.029304
